<?xml version="1.0" encoding="UTF-8"?>
<!DOCTYPE svg PUBLIC "-//W3C//DTD SVG 1.1//EN" "http://www.w3.org/Graphics/SVG/1.1/DTD/svg11.dtd">
<!-- Creator: CorelDRAW X7 -->
<svg xmlns="http://www.w3.org/2000/svg" xml:space="preserve" width="117.528mm" height="34.4489mm" version="1.1" style="shape-rendering:geometricPrecision; text-rendering:geometricPrecision; image-rendering:optimizeQuality; fill-rule:evenodd; clip-rule:evenodd"
viewBox="0 0 14243 4175"
 xmlns:xlink="http://www.w3.org/1999/xlink">
 <defs>
  <style type="text/css">
   <![CDATA[
    .fil2 {fill:none}
    .fil1 {fill:#4C4C4C}
    .fil0 {fill:#FEFEFE}
    .fil3 {fill:#EBECEC;fill-rule:nonzero}
    .fil4 {fill:#2B2A29;fill-rule:nonzero}
    .fil5 {fill:black;fill-rule:nonzero}
   ]]>
  </style>
    <clipPath id="id0">
     <path d="M0 0l14243 0 0 4175 -14243 0 0 -4175z"/>
    </clipPath>
 </defs>
 <g id="Layer_x0020_1">
  <metadata id="CorelCorpID_0Corel-Layer"/>
  <g id="_887408920">
   <polygon class="fil0" points="0,0 14243,0 14243,4175 0,4175 "/>
   <g style="clip-path:url(#id0)">
    <g>
     <g>
      <g>
       <rect class="fil1" x="12100" y="-235" width="27.0593" height="21.1945"/>
       <rect class="fil1" x="12459" y="-235" width="27.0593" height="21.1945"/>
      </g>
      <g>
       <rect class="fil1" x="12100" y="-235" width="27.0593" height="21.1945"/>
       <rect class="fil1" x="12459" y="-235" width="27.0593" height="21.1945"/>
      </g>
      <rect class="fil1" x="13154" y="-235" width="27.0593" height="21.1945"/>
      <g>
       <rect class="fil1" x="-2863" y="-4442" width="27.8183" height="21.922"/>
       <rect class="fil1" x="-2320" y="-4441" width="27.8183" height="21.922"/>
       <rect class="fil1" x="-1777" y="-4440" width="27.8183" height="21.922"/>
       <rect class="fil1" x="-1234" y="-4439" width="27.8183" height="21.922"/>
       <rect class="fil1" x="-691" y="-4438" width="27.8183" height="21.922"/>
       <rect class="fil1" x="-148" y="-4437" width="27.8183" height="21.922"/>
       <rect class="fil1" x="395" y="-4436" width="27.8183" height="21.922"/>
       <rect class="fil1" x="939" y="-4435" width="27.8183" height="21.922"/>
       <rect class="fil1" x="1482" y="-4434" width="27.8183" height="21.922"/>
       <rect class="fil1" x="2025" y="-4432" width="27.8183" height="21.922"/>
       <rect class="fil1" x="2568" y="-4431" width="27.8183" height="21.922"/>
       <rect class="fil1" x="3111" y="-4430" width="27.8183" height="21.922"/>
       <rect class="fil1" x="3654" y="-4429" width="27.8183" height="21.922"/>
       <rect class="fil1" x="4198" y="-4428" width="27.8183" height="21.922"/>
       <rect class="fil1" x="4741" y="-4427" width="27.8183" height="21.922"/>
       <rect class="fil1" x="5284" y="-4426" width="27.8183" height="21.922"/>
       <rect class="fil1" x="5827" y="-4425" width="27.8183" height="21.922"/>
       <rect class="fil1" x="6370" y="-4424" width="27.8183" height="21.922"/>
       <rect class="fil1" x="6913" y="-4423" width="27.8183" height="21.922"/>
       <rect class="fil1" x="7456" y="-4422" width="27.8183" height="21.922"/>
       <rect class="fil1" x="8000" y="-4421" width="27.8183" height="21.922"/>
       <rect class="fil1" x="8543" y="-4420" width="27.8183" height="21.922"/>
       <rect class="fil1" x="9086" y="-4419" width="27.8183" height="21.922"/>
       <rect class="fil1" x="9629" y="-4418" width="27.8183" height="21.922"/>
       <rect class="fil1" x="10172" y="-4416" width="27.8183" height="21.922"/>
       <rect class="fil1" x="10715" y="-4415" width="27.8183" height="21.922"/>
       <rect class="fil1" x="11258" y="-4414" width="27.8183" height="21.922"/>
       <rect class="fil1" x="11802" y="-4413" width="27.8183" height="21.922"/>
       <rect class="fil1" x="12345" y="-4412" width="27.8183" height="21.922"/>
       <rect class="fil1" x="12888" y="-4411" width="27.8183" height="21.922"/>
       <rect class="fil1" x="13431" y="-4410" width="27.8183" height="21.922"/>
       <rect class="fil1" x="13974" y="-4409" width="27.8183" height="21.922"/>
       <rect class="fil1" x="14517" y="-4408" width="27.8183" height="21.922"/>
       <rect class="fil1" x="15060" y="-4407" width="27.8183" height="21.922"/>
       <rect class="fil1" x="15604" y="-4406" width="27.8183" height="21.922"/>
       <rect class="fil1" x="16147" y="-4405" width="27.8183" height="21.922"/>
       <rect class="fil1" x="16690" y="-4404" width="27.8183" height="21.922"/>
       <rect class="fil1" x="17233" y="-4403" width="27.8183" height="21.922"/>
      </g>
      <g>
       <rect class="fil1" x="-2869" y="-4023" width="27.8183" height="21.922"/>
       <rect class="fil1" x="-2326" y="-4022" width="27.8183" height="21.922"/>
       <rect class="fil1" x="-1783" y="-4021" width="27.8183" height="21.922"/>
       <rect class="fil1" x="-1239" y="-4020" width="27.8183" height="21.922"/>
       <rect class="fil1" x="-696" y="-4019" width="27.8183" height="21.922"/>
       <rect class="fil1" x="-153" y="-4018" width="27.8183" height="21.922"/>
       <rect class="fil1" x="390" y="-4016" width="27.8183" height="21.922"/>
       <rect class="fil1" x="933" y="-4015" width="27.8183" height="21.922"/>
       <rect class="fil1" x="1476" y="-4014" width="27.8183" height="21.922"/>
       <rect class="fil1" x="2019" y="-4013" width="27.8183" height="21.922"/>
       <rect class="fil1" x="2563" y="-4012" width="27.8183" height="21.922"/>
       <rect class="fil1" x="3106" y="-4011" width="27.8183" height="21.922"/>
       <rect class="fil1" x="3649" y="-4010" width="27.8183" height="21.922"/>
       <rect class="fil1" x="4192" y="-4009" width="27.8183" height="21.922"/>
       <rect class="fil1" x="4735" y="-4008" width="27.8183" height="21.922"/>
       <rect class="fil1" x="5278" y="-4007" width="27.8183" height="21.922"/>
       <rect class="fil1" x="5822" y="-4006" width="27.8183" height="21.922"/>
       <rect class="fil1" x="6365" y="-4005" width="27.8183" height="21.922"/>
       <rect class="fil1" x="6908" y="-4004" width="27.8183" height="21.922"/>
       <rect class="fil1" x="7451" y="-4003" width="27.8183" height="21.922"/>
       <rect class="fil1" x="7994" y="-4002" width="27.8183" height="21.922"/>
       <rect class="fil1" x="8537" y="-4000" width="27.8183" height="21.922"/>
       <rect class="fil1" x="9080" y="-3999" width="27.8183" height="21.922"/>
       <rect class="fil1" x="9624" y="-3998" width="27.8183" height="21.922"/>
       <rect class="fil1" x="10167" y="-3997" width="27.8183" height="21.922"/>
       <rect class="fil1" x="10710" y="-3996" width="27.8183" height="21.922"/>
       <rect class="fil1" x="11253" y="-3995" width="27.8183" height="21.922"/>
       <rect class="fil1" x="11796" y="-3994" width="27.8183" height="21.922"/>
       <rect class="fil1" x="12339" y="-3993" width="27.8183" height="21.922"/>
       <rect class="fil1" x="12882" y="-3992" width="27.8183" height="21.922"/>
       <rect class="fil1" x="13426" y="-3991" width="27.8183" height="21.922"/>
       <rect class="fil1" x="13969" y="-3990" width="27.8183" height="21.922"/>
       <rect class="fil1" x="14512" y="-3989" width="27.8183" height="21.922"/>
       <rect class="fil1" x="15055" y="-3988" width="27.8183" height="21.922"/>
       <rect class="fil1" x="15598" y="-3987" width="27.8183" height="21.922"/>
       <rect class="fil1" x="16141" y="-3986" width="27.8183" height="21.922"/>
       <rect class="fil1" x="16684" y="-3984" width="27.8183" height="21.922"/>
       <rect class="fil1" x="17228" y="-3983" width="27.8183" height="21.922"/>
      </g>
      <g>
       <rect class="fil1" x="-2874" y="-3604" width="27.8183" height="21.922"/>
       <rect class="fil1" x="-2331" y="-3603" width="27.8183" height="21.922"/>
       <rect class="fil1" x="-1788" y="-3602" width="27.8183" height="21.922"/>
       <rect class="fil1" x="-1245" y="-3600" width="27.8183" height="21.922"/>
       <rect class="fil1" x="-702" y="-3599" width="27.8183" height="21.922"/>
       <rect class="fil1" x="-159" y="-3598" width="27.8183" height="21.922"/>
       <rect class="fil1" x="385" y="-3597" width="27.8183" height="21.922"/>
       <rect class="fil1" x="928" y="-3596" width="27.8183" height="21.922"/>
       <rect class="fil1" x="1471" y="-3595" width="27.8183" height="21.922"/>
       <rect class="fil1" x="2014" y="-3594" width="27.8183" height="21.922"/>
       <rect class="fil1" x="2557" y="-3593" width="27.8183" height="21.922"/>
       <rect class="fil1" x="3100" y="-3592" width="27.8183" height="21.922"/>
       <rect class="fil1" x="3644" y="-3591" width="27.8183" height="21.922"/>
       <rect class="fil1" x="4187" y="-3590" width="27.8183" height="21.922"/>
       <rect class="fil1" x="4730" y="-3589" width="27.8183" height="21.922"/>
       <rect class="fil1" x="5273" y="-3588" width="27.8183" height="21.922"/>
       <rect class="fil1" x="5816" y="-3587" width="27.8183" height="21.922"/>
       <rect class="fil1" x="6359" y="-3586" width="27.8183" height="21.922"/>
       <rect class="fil1" x="6902" y="-3584" width="27.8183" height="21.922"/>
       <rect class="fil1" x="7446" y="-3583" width="27.8183" height="21.922"/>
       <rect class="fil1" x="7989" y="-3582" width="27.8183" height="21.922"/>
       <rect class="fil1" x="8532" y="-3581" width="27.8183" height="21.922"/>
       <rect class="fil1" x="9075" y="-3580" width="27.8183" height="21.922"/>
       <rect class="fil1" x="9618" y="-3579" width="27.8183" height="21.922"/>
       <rect class="fil1" x="10161" y="-3578" width="27.8183" height="21.922"/>
       <rect class="fil1" x="10704" y="-3577" width="27.8183" height="21.922"/>
       <rect class="fil1" x="11248" y="-3576" width="27.8183" height="21.922"/>
       <rect class="fil1" x="11791" y="-3575" width="27.8183" height="21.922"/>
       <rect class="fil1" x="12334" y="-3574" width="27.8183" height="21.922"/>
       <rect class="fil1" x="12877" y="-3573" width="27.8183" height="21.922"/>
       <rect class="fil1" x="13420" y="-3572" width="27.8183" height="21.922"/>
       <rect class="fil1" x="13963" y="-3571" width="27.8183" height="21.922"/>
       <rect class="fil1" x="14506" y="-3570" width="27.8183" height="21.922"/>
       <rect class="fil1" x="15050" y="-3568" width="27.8183" height="21.922"/>
       <rect class="fil1" x="15593" y="-3567" width="27.8183" height="21.922"/>
       <rect class="fil1" x="16136" y="-3566" width="27.8183" height="21.922"/>
       <rect class="fil1" x="16679" y="-3565" width="27.8183" height="21.922"/>
       <rect class="fil1" x="17222" y="-3564" width="27.8183" height="21.922"/>
      </g>
      <g>
       <rect class="fil1" x="-2880" y="-3184" width="27.8183" height="21.922"/>
       <rect class="fil1" x="-2337" y="-3183" width="27.8183" height="21.922"/>
       <rect class="fil1" x="-1793" y="-3182" width="27.8183" height="21.922"/>
       <rect class="fil1" x="-1250" y="-3181" width="27.8183" height="21.922"/>
       <rect class="fil1" x="-707" y="-3180" width="27.8183" height="21.922"/>
       <rect class="fil1" x="-164" y="-3179" width="27.8183" height="21.922"/>
       <rect class="fil1" x="379" y="-3178" width="27.8183" height="21.922"/>
       <rect class="fil1" x="922" y="-3177" width="27.8183" height="21.922"/>
       <rect class="fil1" x="1465" y="-3176" width="27.8183" height="21.922"/>
       <rect class="fil1" x="2009" y="-3175" width="27.8183" height="21.922"/>
       <rect class="fil1" x="2552" y="-3174" width="27.8183" height="21.922"/>
       <rect class="fil1" x="3095" y="-3173" width="27.8183" height="21.922"/>
       <rect class="fil1" x="3638" y="-3172" width="27.8183" height="21.922"/>
       <rect class="fil1" x="4181" y="-3171" width="27.8183" height="21.922"/>
       <rect class="fil1" x="4724" y="-3170" width="27.8183" height="21.922"/>
       <rect class="fil1" x="5268" y="-3168" width="27.8183" height="21.922"/>
       <rect class="fil1" x="5811" y="-3167" width="27.8183" height="21.922"/>
       <rect class="fil1" x="6354" y="-3166" width="27.8183" height="21.922"/>
       <rect class="fil1" x="6897" y="-3165" width="27.8183" height="21.922"/>
       <rect class="fil1" x="7440" y="-3164" width="27.8183" height="21.922"/>
       <rect class="fil1" x="7983" y="-3163" width="27.8183" height="21.922"/>
       <rect class="fil1" x="8526" y="-3162" width="27.8183" height="21.922"/>
       <rect class="fil1" x="9070" y="-3161" width="27.8183" height="21.922"/>
       <rect class="fil1" x="9613" y="-3160" width="27.8183" height="21.922"/>
       <rect class="fil1" x="10156" y="-3159" width="27.8183" height="21.922"/>
       <rect class="fil1" x="10699" y="-3158" width="27.8183" height="21.922"/>
       <rect class="fil1" x="11242" y="-3157" width="27.8183" height="21.922"/>
       <rect class="fil1" x="11785" y="-3156" width="27.8183" height="21.922"/>
       <rect class="fil1" x="12328" y="-3155" width="27.8183" height="21.922"/>
       <rect class="fil1" x="12872" y="-3154" width="27.8183" height="21.922"/>
       <rect class="fil1" x="13415" y="-3152" width="27.8183" height="21.922"/>
       <rect class="fil1" x="13958" y="-3151" width="27.8183" height="21.922"/>
       <rect class="fil1" x="14501" y="-3150" width="27.8183" height="21.922"/>
       <rect class="fil1" x="15044" y="-3149" width="27.8183" height="21.922"/>
       <rect class="fil1" x="15587" y="-3148" width="27.8183" height="21.922"/>
       <rect class="fil1" x="16130" y="-3147" width="27.8183" height="21.922"/>
       <rect class="fil1" x="16674" y="-3146" width="27.8183" height="21.922"/>
       <rect class="fil1" x="17217" y="-3145" width="27.8183" height="21.922"/>
      </g>
      <g>
       <rect class="fil1" x="-2885" y="-2765" width="27.8183" height="21.922"/>
       <rect class="fil1" x="-2342" y="-2764" width="27.8183" height="21.922"/>
       <rect class="fil1" x="-1799" y="-2763" width="27.8183" height="21.922"/>
       <rect class="fil1" x="-1256" y="-2762" width="27.8183" height="21.922"/>
       <rect class="fil1" x="-713" y="-2761" width="27.8183" height="21.922"/>
       <rect class="fil1" x="-169" y="-2760" width="27.8183" height="21.922"/>
       <rect class="fil1" x="374" y="-2759" width="27.8183" height="21.922"/>
       <rect class="fil1" x="917" y="-2758" width="27.8183" height="21.922"/>
       <rect class="fil1" x="1460" y="-2757" width="27.8183" height="21.922"/>
       <rect class="fil1" x="2003" y="-2756" width="27.8183" height="21.922"/>
       <rect class="fil1" x="2546" y="-2755" width="27.8183" height="21.922"/>
       <rect class="fil1" x="3090" y="-2754" width="27.8183" height="21.922"/>
       <rect class="fil1" x="3633" y="-2752" width="27.8183" height="21.922"/>
       <rect class="fil1" x="4176" y="-2751" width="27.8183" height="21.922"/>
       <rect class="fil1" x="4719" y="-2750" width="27.8183" height="21.922"/>
       <rect class="fil1" x="5262" y="-2749" width="27.8183" height="21.922"/>
       <rect class="fil1" x="5805" y="-2748" width="27.8183" height="21.922"/>
       <rect class="fil1" x="6348" y="-2747" width="27.8183" height="21.922"/>
       <rect class="fil1" x="6892" y="-2746" width="27.8183" height="21.922"/>
       <rect class="fil1" x="7435" y="-2745" width="27.8183" height="21.922"/>
       <rect class="fil1" x="7978" y="-2744" width="27.8183" height="21.922"/>
       <rect class="fil1" x="8521" y="-2743" width="27.8183" height="21.922"/>
       <rect class="fil1" x="9064" y="-2742" width="27.8183" height="21.922"/>
       <rect class="fil1" x="9607" y="-2741" width="27.8183" height="21.922"/>
       <rect class="fil1" x="10150" y="-2740" width="27.8183" height="21.922"/>
       <rect class="fil1" x="10694" y="-2739" width="27.8183" height="21.922"/>
       <rect class="fil1" x="11237" y="-2738" width="27.8183" height="21.922"/>
       <rect class="fil1" x="11780" y="-2736" width="27.8183" height="21.922"/>
       <rect class="fil1" x="12323" y="-2735" width="27.8183" height="21.922"/>
       <rect class="fil1" x="12866" y="-2734" width="27.8183" height="21.922"/>
       <rect class="fil1" x="13409" y="-2733" width="27.8183" height="21.922"/>
       <rect class="fil1" x="13952" y="-2732" width="27.8183" height="21.922"/>
       <rect class="fil1" x="14496" y="-2731" width="27.8183" height="21.922"/>
       <rect class="fil1" x="15039" y="-2730" width="27.8183" height="21.922"/>
       <rect class="fil1" x="15582" y="-2729" width="27.8183" height="21.922"/>
       <rect class="fil1" x="16125" y="-2728" width="27.8183" height="21.922"/>
       <rect class="fil1" x="16668" y="-2727" width="27.8183" height="21.922"/>
       <rect class="fil1" x="17211" y="-2726" width="27.8183" height="21.922"/>
      </g>
      <g>
       <rect class="fil1" x="-2891" y="-2346" width="27.8183" height="21.922"/>
       <rect class="fil1" x="-2347" y="-2345" width="27.8183" height="21.922"/>
       <rect class="fil1" x="-1804" y="-2344" width="27.8183" height="21.922"/>
       <rect class="fil1" x="-1261" y="-2343" width="27.8183" height="21.922"/>
       <rect class="fil1" x="-718" y="-2342" width="27.8183" height="21.922"/>
       <rect class="fil1" x="-175" y="-2341" width="27.8183" height="21.922"/>
       <rect class="fil1" x="368" y="-2340" width="27.8183" height="21.922"/>
       <rect class="fil1" x="912" y="-2339" width="27.8183" height="21.922"/>
       <rect class="fil1" x="1455" y="-2338" width="27.8183" height="21.922"/>
       <rect class="fil1" x="1998" y="-2336" width="27.8183" height="21.922"/>
       <rect class="fil1" x="2541" y="-2335" width="27.8183" height="21.922"/>
       <rect class="fil1" x="3084" y="-2334" width="27.8183" height="21.922"/>
       <rect class="fil1" x="3627" y="-2333" width="27.8183" height="21.922"/>
       <rect class="fil1" x="4170" y="-2332" width="27.8183" height="21.922"/>
       <rect class="fil1" x="4714" y="-2331" width="27.8183" height="21.922"/>
       <rect class="fil1" x="5257" y="-2330" width="27.8183" height="21.922"/>
       <rect class="fil1" x="5800" y="-2329" width="27.8183" height="21.922"/>
       <rect class="fil1" x="6343" y="-2328" width="27.8183" height="21.922"/>
       <rect class="fil1" x="6886" y="-2327" width="27.8183" height="21.922"/>
       <rect class="fil1" x="7429" y="-2326" width="27.8183" height="21.922"/>
       <rect class="fil1" x="7972" y="-2325" width="27.8183" height="21.922"/>
       <rect class="fil1" x="8516" y="-2324" width="27.8183" height="21.922"/>
       <rect class="fil1" x="9059" y="-2323" width="27.8183" height="21.922"/>
       <rect class="fil1" x="9602" y="-2322" width="27.8183" height="21.922"/>
       <rect class="fil1" x="10145" y="-2320" width="27.8183" height="21.922"/>
       <rect class="fil1" x="10688" y="-2319" width="27.8183" height="21.922"/>
       <rect class="fil1" x="11231" y="-2318" width="27.8183" height="21.922"/>
       <rect class="fil1" x="11774" y="-2317" width="27.8183" height="21.922"/>
       <rect class="fil1" x="12318" y="-2316" width="27.8183" height="21.922"/>
       <rect class="fil1" x="12861" y="-2315" width="27.8183" height="21.922"/>
       <rect class="fil1" x="13404" y="-2314" width="27.8183" height="21.922"/>
       <rect class="fil1" x="13947" y="-2313" width="27.8183" height="21.922"/>
       <rect class="fil1" x="14490" y="-2312" width="27.8183" height="21.922"/>
       <rect class="fil1" x="15033" y="-2311" width="27.8183" height="21.922"/>
       <rect class="fil1" x="15576" y="-2310" width="27.8183" height="21.922"/>
       <rect class="fil1" x="16120" y="-2309" width="27.8183" height="21.922"/>
       <rect class="fil1" x="16663" y="-2308" width="27.8183" height="21.922"/>
       <rect class="fil1" x="17206" y="-2307" width="27.8183" height="21.922"/>
      </g>
      <g>
       <rect class="fil1" x="-2896" y="-1927" width="27.8183" height="21.922"/>
       <rect class="fil1" x="-2353" y="-1926" width="27.8183" height="21.922"/>
       <rect class="fil1" x="-1810" y="-1925" width="27.8183" height="21.922"/>
       <rect class="fil1" x="-1267" y="-1924" width="27.8183" height="21.922"/>
       <rect class="fil1" x="-723" y="-1923" width="27.8183" height="21.922"/>
       <rect class="fil1" x="-180" y="-1922" width="27.8183" height="21.922"/>
       <rect class="fil1" x="363" y="-1921" width="27.8183" height="21.922"/>
       <rect class="fil1" x="906" y="-1919" width="27.8183" height="21.922"/>
       <rect class="fil1" x="1449" y="-1918" width="27.8183" height="21.922"/>
       <rect class="fil1" x="1992" y="-1917" width="27.8183" height="21.922"/>
       <rect class="fil1" x="2536" y="-1916" width="27.8183" height="21.922"/>
       <rect class="fil1" x="3079" y="-1915" width="27.8183" height="21.922"/>
       <rect class="fil1" x="3622" y="-1914" width="27.8183" height="21.922"/>
       <rect class="fil1" x="4165" y="-1913" width="27.8183" height="21.922"/>
       <rect class="fil1" x="4708" y="-1912" width="27.8183" height="21.922"/>
       <rect class="fil1" x="5251" y="-1911" width="27.8183" height="21.922"/>
       <rect class="fil1" x="5794" y="-1910" width="27.8183" height="21.922"/>
       <rect class="fil1" x="6338" y="-1909" width="27.8183" height="21.922"/>
       <rect class="fil1" x="6881" y="-1908" width="27.8183" height="21.922"/>
       <rect class="fil1" x="7424" y="-1907" width="27.8183" height="21.922"/>
       <rect class="fil1" x="7967" y="-1906" width="27.8183" height="21.922"/>
       <rect class="fil1" x="8510" y="-1905" width="27.8183" height="21.922"/>
       <rect class="fil1" x="9053" y="-1903" width="27.8183" height="21.922"/>
       <rect class="fil1" x="9596" y="-1902" width="27.8183" height="21.922"/>
       <rect class="fil1" x="10140" y="-1901" width="27.8183" height="21.922"/>
       <rect class="fil1" x="10683" y="-1900" width="27.8183" height="21.922"/>
       <rect class="fil1" x="11226" y="-1899" width="27.8183" height="21.922"/>
       <rect class="fil1" x="11769" y="-1898" width="27.8183" height="21.922"/>
       <rect class="fil1" x="12312" y="-1897" width="27.8183" height="21.922"/>
       <rect class="fil1" x="12855" y="-1896" width="27.8183" height="21.922"/>
       <rect class="fil1" x="13398" y="-1895" width="27.8183" height="21.922"/>
       <rect class="fil1" x="13942" y="-1894" width="27.8183" height="21.922"/>
       <rect class="fil1" x="14485" y="-1893" width="27.8183" height="21.922"/>
       <rect class="fil1" x="15028" y="-1892" width="27.8183" height="21.922"/>
       <rect class="fil1" x="15571" y="-1891" width="27.8183" height="21.922"/>
       <rect class="fil1" x="16114" y="-1890" width="27.8183" height="21.922"/>
       <rect class="fil1" x="16657" y="-1888" width="27.8183" height="21.922"/>
       <rect class="fil1" x="17200" y="-1887" width="27.8183" height="21.922"/>
      </g>
      <g>
       <rect class="fil1" x="-2901" y="-1508" width="27.8183" height="21.922"/>
       <rect class="fil1" x="-2358" y="-1507" width="27.8183" height="21.922"/>
       <rect class="fil1" x="-1815" y="-1506" width="27.8183" height="21.922"/>
       <rect class="fil1" x="-1272" y="-1505" width="27.8183" height="21.922"/>
       <rect class="fil1" x="-729" y="-1503" width="27.8183" height="21.922"/>
       <rect class="fil1" x="-186" y="-1502" width="27.8183" height="21.922"/>
       <rect class="fil1" x="358" y="-1501" width="27.8183" height="21.922"/>
       <rect class="fil1" x="901" y="-1500" width="27.8183" height="21.922"/>
       <rect class="fil1" x="1444" y="-1499" width="27.8183" height="21.922"/>
       <rect class="fil1" x="1987" y="-1498" width="27.8183" height="21.922"/>
       <rect class="fil1" x="2530" y="-1497" width="27.8183" height="21.922"/>
       <rect class="fil1" x="3073" y="-1496" width="27.8183" height="21.922"/>
       <rect class="fil1" x="3616" y="-1495" width="27.8183" height="21.922"/>
       <rect class="fil1" x="4160" y="-1494" width="27.8183" height="21.922"/>
       <rect class="fil1" x="4703" y="-1493" width="27.8183" height="21.922"/>
       <rect class="fil1" x="5246" y="-1492" width="27.8183" height="21.922"/>
       <rect class="fil1" x="5789" y="-1491" width="27.8183" height="21.922"/>
       <rect class="fil1" x="6332" y="-1490" width="27.8183" height="21.922"/>
       <rect class="fil1" x="6875" y="-1489" width="27.8183" height="21.922"/>
       <rect class="fil1" x="7418" y="-1487" width="27.8183" height="21.922"/>
       <rect class="fil1" x="7962" y="-1486" width="27.8183" height="21.922"/>
       <rect class="fil1" x="8505" y="-1485" width="27.8183" height="21.922"/>
       <rect class="fil1" x="9048" y="-1484" width="27.8183" height="21.922"/>
       <rect class="fil1" x="9591" y="-1483" width="27.8183" height="21.922"/>
       <rect class="fil1" x="10134" y="-1482" width="27.8183" height="21.922"/>
       <rect class="fil1" x="10677" y="-1481" width="27.8183" height="21.922"/>
       <rect class="fil1" x="11220" y="-1480" width="27.8183" height="21.922"/>
       <rect class="fil1" x="11764" y="-1479" width="27.8183" height="21.922"/>
       <rect class="fil1" x="12307" y="-1478" width="27.8183" height="21.922"/>
       <rect class="fil1" x="12850" y="-1477" width="27.8183" height="21.922"/>
       <rect class="fil1" x="13393" y="-1476" width="27.8183" height="21.922"/>
       <rect class="fil1" x="13936" y="-1475" width="27.8183" height="21.922"/>
       <rect class="fil1" x="14479" y="-1474" width="27.8183" height="21.922"/>
       <rect class="fil1" x="15022" y="-1473" width="27.8183" height="21.922"/>
       <rect class="fil1" x="15566" y="-1471" width="27.8183" height="21.922"/>
       <rect class="fil1" x="16109" y="-1470" width="27.8183" height="21.922"/>
       <rect class="fil1" x="16652" y="-1469" width="27.8183" height="21.922"/>
       <rect class="fil1" x="17195" y="-1468" width="27.8183" height="21.922"/>
      </g>
      <g>
       <rect class="fil1" x="-2907" y="-1089" width="27.8183" height="21.922"/>
       <rect class="fil1" x="-2364" y="-1087" width="27.8183" height="21.922"/>
       <rect class="fil1" x="-1821" y="-1086" width="27.8183" height="21.922"/>
       <rect class="fil1" x="-1277" y="-1085" width="27.8183" height="21.922"/>
       <rect class="fil1" x="-734" y="-1084" width="27.8183" height="21.922"/>
       <rect class="fil1" x="-191" y="-1083" width="27.8183" height="21.922"/>
       <rect class="fil1" x="352" y="-1082" width="27.8183" height="21.922"/>
       <rect class="fil1" x="895" y="-1081" width="27.8183" height="21.922"/>
       <rect class="fil1" x="1438" y="-1080" width="27.8183" height="21.922"/>
       <rect class="fil1" x="1982" y="-1079" width="27.8183" height="21.922"/>
       <rect class="fil1" x="2525" y="-1078" width="27.8183" height="21.922"/>
       <rect class="fil1" x="3068" y="-1077" width="27.8183" height="21.922"/>
       <rect class="fil1" x="3611" y="-1076" width="27.8183" height="21.922"/>
       <rect class="fil1" x="4154" y="-1075" width="27.8183" height="21.922"/>
       <rect class="fil1" x="4697" y="-1074" width="27.8183" height="21.922"/>
       <rect class="fil1" x="5240" y="-1073" width="27.8183" height="21.922"/>
       <rect class="fil1" x="5784" y="-1071" width="27.8183" height="21.922"/>
       <rect class="fil1" x="6327" y="-1070" width="27.8183" height="21.922"/>
       <rect class="fil1" x="6870" y="-1069" width="27.8183" height="21.922"/>
       <rect class="fil1" x="7413" y="-1068" width="27.8183" height="21.922"/>
       <rect class="fil1" x="7956" y="-1067" width="27.8183" height="21.922"/>
       <rect class="fil1" x="8499" y="-1066" width="27.8183" height="21.922"/>
       <rect class="fil1" x="9042" y="-1065" width="27.8183" height="21.922"/>
       <rect class="fil1" x="9586" y="-1064" width="27.8183" height="21.922"/>
       <rect class="fil1" x="10129" y="-1063" width="27.8183" height="21.922"/>
       <rect class="fil1" x="10672" y="-1062" width="27.8183" height="21.922"/>
       <rect class="fil1" x="11215" y="-1061" width="27.8183" height="21.922"/>
       <rect class="fil1" x="11758" y="-1060" width="27.8183" height="21.922"/>
       <rect class="fil1" x="12301" y="-1059" width="27.8183" height="21.922"/>
       <rect class="fil1" x="12844" y="-1058" width="27.8183" height="21.922"/>
       <rect class="fil1" x="13388" y="-1057" width="27.8183" height="21.922"/>
       <rect class="fil1" x="13931" y="-1055" width="27.8183" height="21.922"/>
       <rect class="fil1" x="14474" y="-1054" width="27.8183" height="21.922"/>
       <rect class="fil1" x="15017" y="-1053" width="27.8183" height="21.922"/>
       <rect class="fil1" x="15560" y="-1052" width="27.8183" height="21.922"/>
       <rect class="fil1" x="16103" y="-1051" width="27.8183" height="21.922"/>
       <rect class="fil1" x="16646" y="-1050" width="27.8183" height="21.922"/>
       <rect class="fil1" x="17190" y="-1049" width="27.8183" height="21.922"/>
      </g>
      <g>
       <rect class="fil1" x="-2912" y="-669" width="27.8183" height="21.922"/>
       <rect class="fil1" x="-2369" y="-668" width="27.8183" height="21.922"/>
       <rect class="fil1" x="-1826" y="-667" width="27.8183" height="21.922"/>
       <rect class="fil1" x="-1283" y="-666" width="27.8183" height="21.922"/>
       <rect class="fil1" x="-740" y="-665" width="27.8183" height="21.922"/>
       <rect class="fil1" x="-196" y="-664" width="27.8183" height="21.922"/>
       <rect class="fil1" x="347" y="-663" width="27.8183" height="21.922"/>
       <rect class="fil1" x="890" y="-662" width="27.8183" height="21.922"/>
       <rect class="fil1" x="1433" y="-661" width="27.8183" height="21.922"/>
       <rect class="fil1" x="1976" y="-660" width="27.8183" height="21.922"/>
       <rect class="fil1" x="2519" y="-659" width="27.8183" height="21.922"/>
       <rect class="fil1" x="3062" y="-658" width="27.8183" height="21.922"/>
       <rect class="fil1" x="3606" y="-657" width="27.8183" height="21.922"/>
       <rect class="fil1" x="4149" y="-655" width="27.8183" height="21.922"/>
       <rect class="fil1" x="4692" y="-654" width="27.8183" height="21.922"/>
       <rect class="fil1" x="5235" y="-653" width="27.8183" height="21.922"/>
       <rect class="fil1" x="5778" y="-652" width="27.8183" height="21.922"/>
       <rect class="fil1" x="6321" y="-651" width="27.8183" height="21.922"/>
       <rect class="fil1" x="6864" y="-650" width="27.8183" height="21.922"/>
       <rect class="fil1" x="7408" y="-649" width="27.8183" height="21.922"/>
       <rect class="fil1" x="7951" y="-648" width="27.8183" height="21.922"/>
       <rect class="fil1" x="8494" y="-647" width="27.8183" height="21.922"/>
       <rect class="fil1" x="9037" y="-646" width="27.8183" height="21.922"/>
       <rect class="fil1" x="9580" y="-645" width="27.8183" height="21.922"/>
       <rect class="fil1" x="10123" y="-644" width="27.8183" height="21.922"/>
       <rect class="fil1" x="10666" y="-643" width="27.8183" height="21.922"/>
       <rect class="fil1" x="11210" y="-642" width="27.8183" height="21.922"/>
       <rect class="fil1" x="11753" y="-641" width="27.8183" height="21.922"/>
       <rect class="fil1" x="12296" y="-639" width="27.8183" height="21.922"/>
       <rect class="fil1" x="12839" y="-638" width="27.8183" height="21.922"/>
       <rect class="fil1" x="13382" y="-637" width="27.8183" height="21.922"/>
       <rect class="fil1" x="13925" y="-636" width="27.8183" height="21.922"/>
       <rect class="fil1" x="14468" y="-635" width="27.8183" height="21.922"/>
       <rect class="fil1" x="15012" y="-634" width="27.8183" height="21.922"/>
       <rect class="fil1" x="15555" y="-633" width="27.8183" height="21.922"/>
       <rect class="fil1" x="16098" y="-632" width="27.8183" height="21.922"/>
       <rect class="fil1" x="16641" y="-631" width="27.8183" height="21.922"/>
       <rect class="fil1" x="17184" y="-630" width="27.8183" height="21.922"/>
      </g>
      <g>
       <rect class="fil1" x="-2918" y="-250" width="27.8183" height="21.922"/>
       <rect class="fil1" x="-2374" y="-249" width="27.8183" height="21.922"/>
       <rect class="fil1" x="-1831" y="-248" width="27.8183" height="21.922"/>
       <rect class="fil1" x="-1288" y="-247" width="27.8183" height="21.922"/>
       <rect class="fil1" x="-745" y="-246" width="27.8183" height="21.922"/>
       <rect class="fil1" x="-202" y="-245" width="27.8183" height="21.922"/>
       <rect class="fil1" x="341" y="-244" width="27.8183" height="21.922"/>
       <rect class="fil1" x="884" y="-243" width="27.8183" height="21.922"/>
       <rect class="fil1" x="1428" y="-242" width="27.8183" height="21.922"/>
       <rect class="fil1" x="1971" y="-241" width="27.8183" height="21.922"/>
       <rect class="fil1" x="2514" y="-239" width="27.8183" height="21.922"/>
       <rect class="fil1" x="3057" y="-238" width="27.8183" height="21.922"/>
       <rect class="fil1" x="3600" y="-237" width="27.8183" height="21.922"/>
       <rect class="fil1" x="4143" y="-236" width="27.8183" height="21.922"/>
       <rect class="fil1" x="4686" y="-235" width="27.8183" height="21.922"/>
       <rect class="fil1" x="5230" y="-234" width="27.8183" height="21.922"/>
       <rect class="fil1" x="5773" y="-233" width="27.8183" height="21.922"/>
       <rect class="fil1" x="6316" y="-232" width="27.8183" height="21.922"/>
       <rect class="fil1" x="6859" y="-231" width="27.8183" height="21.922"/>
       <rect class="fil1" x="7402" y="-230" width="27.8183" height="21.922"/>
       <rect class="fil1" x="7945" y="-229" width="27.8183" height="21.922"/>
       <rect class="fil1" x="8488" y="-228" width="27.8183" height="21.922"/>
       <rect class="fil1" x="9032" y="-227" width="27.8183" height="21.922"/>
       <rect class="fil1" x="9575" y="-226" width="27.8183" height="21.922"/>
       <rect class="fil1" x="10118" y="-225" width="27.8183" height="21.922"/>
       <rect class="fil1" x="10661" y="-223" width="27.8183" height="21.922"/>
       <rect class="fil1" x="11204" y="-222" width="27.8183" height="21.922"/>
       <rect class="fil1" x="11747" y="-221" width="27.8183" height="21.922"/>
       <rect class="fil1" x="12834" y="-219" width="27.8183" height="21.922"/>
       <rect class="fil1" x="13377" y="-218" width="27.8183" height="21.922"/>
       <rect class="fil1" x="13920" y="-217" width="27.8183" height="21.922"/>
       <rect class="fil1" x="14463" y="-216" width="27.8183" height="21.922"/>
       <rect class="fil1" x="15006" y="-215" width="27.8183" height="21.922"/>
       <rect class="fil1" x="15549" y="-214" width="27.8183" height="21.922"/>
       <rect class="fil1" x="16092" y="-213" width="27.8183" height="21.922"/>
       <rect class="fil1" x="16636" y="-212" width="27.8183" height="21.922"/>
       <rect class="fil1" x="17179" y="-211" width="27.8183" height="21.922"/>
      </g>
      <g>
       <rect class="fil1" x="-2923" y="169" width="27.8183" height="21.922"/>
       <rect class="fil1" x="-2380" y="170" width="27.8183" height="21.922"/>
       <rect class="fil1" x="-1837" y="171" width="27.8183" height="21.922"/>
       <rect class="fil1" x="-1294" y="172" width="27.8183" height="21.922"/>
       <rect class="fil1" x="-750" y="173" width="27.8183" height="21.922"/>
       <rect class="fil1" x="-207" y="174" width="27.8183" height="21.922"/>
       <rect class="fil1" x="336" y="175" width="27.8183" height="21.922"/>
       <rect class="fil1" x="879" y="177" width="27.8183" height="21.922"/>
       <rect class="fil1" x="1422" y="178" width="27.8183" height="21.922"/>
       <rect class="fil1" x="1965" y="179" width="27.8183" height="21.922"/>
       <rect class="fil1" x="2508" y="180" width="27.8183" height="21.922"/>
       <rect class="fil1" x="3052" y="181" width="27.8183" height="21.922"/>
       <rect class="fil1" x="3595" y="182" width="27.8183" height="21.922"/>
       <rect class="fil1" x="4138" y="183" width="27.8183" height="21.922"/>
       <rect class="fil1" x="4681" y="184" width="27.8183" height="21.922"/>
       <rect class="fil1" x="5224" y="185" width="27.8183" height="21.922"/>
       <rect class="fil1" x="5767" y="186" width="27.8183" height="21.922"/>
       <rect class="fil1" x="6310" y="187" width="27.8183" height="21.922"/>
       <rect class="fil1" x="6854" y="188" width="27.8183" height="21.922"/>
       <rect class="fil1" x="7397" y="189" width="27.8183" height="21.922"/>
       <rect class="fil1" x="7940" y="190" width="27.8183" height="21.922"/>
       <rect class="fil1" x="8483" y="191" width="27.8183" height="21.922"/>
       <rect class="fil1" x="9026" y="193" width="27.8183" height="21.922"/>
       <rect class="fil1" x="9569" y="194" width="27.8183" height="21.922"/>
       <rect class="fil1" x="10112" y="195" width="27.8183" height="21.922"/>
       <rect class="fil1" x="10656" y="196" width="27.8183" height="21.922"/>
       <rect class="fil1" x="11199" y="197" width="27.8183" height="21.922"/>
       <rect class="fil1" x="11742" y="198" width="27.8183" height="21.922"/>
       <rect class="fil1" x="12285" y="199" width="27.8183" height="21.922"/>
       <rect class="fil1" x="12828" y="200" width="27.8183" height="21.922"/>
       <rect class="fil1" x="13371" y="201" width="27.8183" height="21.922"/>
       <rect class="fil1" x="13914" y="202" width="27.8183" height="21.922"/>
       <rect class="fil1" x="14458" y="203" width="27.8183" height="21.922"/>
       <rect class="fil1" x="15001" y="204" width="27.8183" height="21.922"/>
       <rect class="fil1" x="15544" y="205" width="27.8183" height="21.922"/>
       <rect class="fil1" x="16087" y="206" width="27.8183" height="21.922"/>
       <rect class="fil1" x="16630" y="207" width="27.8183" height="21.922"/>
       <rect class="fil1" x="17173" y="209" width="27.8183" height="21.922"/>
      </g>
      <g>
       <rect class="fil1" x="-2928" y="588" width="27.8183" height="21.922"/>
       <rect class="fil1" x="-2385" y="589" width="27.8183" height="21.922"/>
       <rect class="fil1" x="-1842" y="590" width="27.8183" height="21.922"/>
       <rect class="fil1" x="-1299" y="591" width="27.8183" height="21.922"/>
       <rect class="fil1" x="-756" y="593" width="27.8183" height="21.922"/>
       <rect class="fil1" x="-213" y="594" width="27.8183" height="21.922"/>
       <rect class="fil1" x="330" y="595" width="27.8183" height="21.922"/>
       <rect class="fil1" x="874" y="596" width="27.8183" height="21.922"/>
       <rect class="fil1" x="1417" y="597" width="27.8183" height="21.922"/>
       <rect class="fil1" x="1960" y="598" width="27.8183" height="21.922"/>
       <rect class="fil1" x="2503" y="599" width="27.8183" height="21.922"/>
       <rect class="fil1" x="3046" y="600" width="27.8183" height="21.922"/>
       <rect class="fil1" x="3589" y="601" width="27.8183" height="21.922"/>
       <rect class="fil1" x="4132" y="602" width="27.8183" height="21.922"/>
       <rect class="fil1" x="4676" y="603" width="27.8183" height="21.922"/>
       <rect class="fil1" x="5219" y="604" width="27.8183" height="21.922"/>
       <rect class="fil1" x="5762" y="605" width="27.8183" height="21.922"/>
       <rect class="fil1" x="6305" y="606" width="27.8183" height="21.922"/>
       <rect class="fil1" x="6848" y="607" width="27.8183" height="21.922"/>
       <rect class="fil1" x="7391" y="609" width="27.8183" height="21.922"/>
       <rect class="fil1" x="7934" y="610" width="27.8183" height="21.922"/>
       <rect class="fil1" x="8478" y="611" width="27.8183" height="21.922"/>
       <rect class="fil1" x="9021" y="612" width="27.8183" height="21.922"/>
       <rect class="fil1" x="9564" y="613" width="27.8183" height="21.922"/>
       <rect class="fil1" x="10107" y="614" width="27.8183" height="21.922"/>
       <rect class="fil1" x="10650" y="615" width="27.8183" height="21.922"/>
       <rect class="fil1" x="11193" y="616" width="27.8183" height="21.922"/>
       <rect class="fil1" x="11736" y="617" width="27.8183" height="21.922"/>
       <rect class="fil1" x="12280" y="618" width="27.8183" height="21.922"/>
       <rect class="fil1" x="12823" y="619" width="27.8183" height="21.922"/>
       <rect class="fil1" x="13366" y="620" width="27.8183" height="21.922"/>
       <rect class="fil1" x="13909" y="621" width="27.8183" height="21.922"/>
       <rect class="fil1" x="14452" y="622" width="27.8183" height="21.922"/>
       <rect class="fil1" x="14995" y="623" width="27.8183" height="21.922"/>
       <rect class="fil1" x="15538" y="625" width="27.8183" height="21.922"/>
       <rect class="fil1" x="16082" y="626" width="27.8183" height="21.922"/>
       <rect class="fil1" x="16625" y="627" width="27.8183" height="21.922"/>
       <rect class="fil1" x="17168" y="628" width="27.8183" height="21.922"/>
      </g>
      <g>
       <rect class="fil1" x="-2934" y="1007" width="27.8183" height="21.922"/>
       <rect class="fil1" x="-2391" y="1009" width="27.8183" height="21.922"/>
       <rect class="fil1" x="-1848" y="1010" width="27.8183" height="21.922"/>
       <rect class="fil1" x="-1304" y="1011" width="27.8183" height="21.922"/>
       <rect class="fil1" x="-761" y="1012" width="27.8183" height="21.922"/>
       <rect class="fil1" x="-218" y="1013" width="27.8183" height="21.922"/>
       <rect class="fil1" x="325" y="1014" width="27.8183" height="21.922"/>
       <rect class="fil1" x="868" y="1015" width="27.8183" height="21.922"/>
       <rect class="fil1" x="1411" y="1016" width="27.8183" height="21.922"/>
       <rect class="fil1" x="1954" y="1017" width="27.8183" height="21.922"/>
       <rect class="fil1" x="2498" y="1018" width="27.8183" height="21.922"/>
       <rect class="fil1" x="3041" y="1019" width="27.8183" height="21.922"/>
       <rect class="fil1" x="3584" y="1020" width="27.8183" height="21.922"/>
       <rect class="fil1" x="4127" y="1021" width="27.8183" height="21.922"/>
       <rect class="fil1" x="4670" y="1022" width="27.8183" height="21.922"/>
       <rect class="fil1" x="5213" y="1023" width="27.8183" height="21.922"/>
       <rect class="fil1" x="5756" y="1025" width="27.8183" height="21.922"/>
       <rect class="fil1" x="6300" y="1026" width="27.8183" height="21.922"/>
       <rect class="fil1" x="6843" y="1027" width="27.8183" height="21.922"/>
       <rect class="fil1" x="7386" y="1028" width="27.8183" height="21.922"/>
       <rect class="fil1" x="7929" y="1029" width="27.8183" height="21.922"/>
       <rect class="fil1" x="8472" y="1030" width="27.8183" height="21.922"/>
       <rect class="fil1" x="9015" y="1031" width="27.8183" height="21.922"/>
       <rect class="fil1" x="9558" y="1032" width="27.8183" height="21.922"/>
       <rect class="fil1" x="10102" y="1033" width="27.8183" height="21.922"/>
       <rect class="fil1" x="10645" y="1034" width="27.8183" height="21.922"/>
       <rect class="fil1" x="11188" y="1035" width="27.8183" height="21.922"/>
       <rect class="fil1" x="11731" y="1036" width="27.8183" height="21.922"/>
       <rect class="fil1" x="12274" y="1037" width="27.8183" height="21.922"/>
       <rect class="fil1" x="12817" y="1038" width="27.8183" height="21.922"/>
       <rect class="fil1" x="13360" y="1039" width="27.8183" height="21.922"/>
       <rect class="fil1" x="13904" y="1041" width="27.8183" height="21.922"/>
       <rect class="fil1" x="14447" y="1042" width="27.8183" height="21.922"/>
       <rect class="fil1" x="14990" y="1043" width="27.8183" height="21.922"/>
       <rect class="fil1" x="15533" y="1044" width="27.8183" height="21.922"/>
       <rect class="fil1" x="16076" y="1045" width="27.8183" height="21.922"/>
       <rect class="fil1" x="16619" y="1046" width="27.8183" height="21.922"/>
       <rect class="fil1" x="17162" y="1047" width="27.8183" height="21.922"/>
      </g>
      <g>
       <rect class="fil1" x="-2939" y="1427" width="27.8183" height="21.922"/>
       <rect class="fil1" x="-2396" y="1428" width="27.8183" height="21.922"/>
       <rect class="fil1" x="-1853" y="1429" width="27.8183" height="21.922"/>
       <rect class="fil1" x="-1310" y="1430" width="27.8183" height="21.922"/>
       <rect class="fil1" x="-767" y="1431" width="27.8183" height="21.922"/>
       <rect class="fil1" x="-224" y="1432" width="27.8183" height="21.922"/>
       <rect class="fil1" x="320" y="1433" width="27.8183" height="21.922"/>
       <rect class="fil1" x="863" y="1434" width="27.8183" height="21.922"/>
       <rect class="fil1" x="1406" y="1435" width="27.8183" height="21.922"/>
       <rect class="fil1" x="1949" y="1436" width="27.8183" height="21.922"/>
       <rect class="fil1" x="2492" y="1437" width="27.8183" height="21.922"/>
       <rect class="fil1" x="3035" y="1438" width="27.8183" height="21.922"/>
       <rect class="fil1" x="3578" y="1439" width="27.8183" height="21.922"/>
       <rect class="fil1" x="4122" y="1441" width="27.8183" height="21.922"/>
       <rect class="fil1" x="4665" y="1442" width="27.8183" height="21.922"/>
       <rect class="fil1" x="5208" y="1443" width="27.8183" height="21.922"/>
       <rect class="fil1" x="5751" y="1444" width="27.8183" height="21.922"/>
       <rect class="fil1" x="6294" y="1445" width="27.8183" height="21.922"/>
       <rect class="fil1" x="6837" y="1446" width="27.8183" height="21.922"/>
       <rect class="fil1" x="7380" y="1447" width="27.8183" height="21.922"/>
       <rect class="fil1" x="7924" y="1448" width="27.8183" height="21.922"/>
       <rect class="fil1" x="8467" y="1449" width="27.8183" height="21.922"/>
       <rect class="fil1" x="9010" y="1450" width="27.8183" height="21.922"/>
       <rect class="fil1" x="9553" y="1451" width="27.8183" height="21.922"/>
       <rect class="fil1" x="10096" y="1452" width="27.8183" height="21.922"/>
       <rect class="fil1" x="10639" y="1453" width="27.8183" height="21.922"/>
       <rect class="fil1" x="11182" y="1454" width="27.8183" height="21.922"/>
       <rect class="fil1" x="11726" y="1455" width="27.8183" height="21.922"/>
       <rect class="fil1" x="12269" y="1457" width="27.8183" height="21.922"/>
       <rect class="fil1" x="12812" y="1458" width="27.8183" height="21.922"/>
       <rect class="fil1" x="13355" y="1459" width="27.8183" height="21.922"/>
       <rect class="fil1" x="13898" y="1460" width="27.8183" height="21.922"/>
       <rect class="fil1" x="14441" y="1461" width="27.8183" height="21.922"/>
       <rect class="fil1" x="14984" y="1462" width="27.8183" height="21.922"/>
       <rect class="fil1" x="15528" y="1463" width="27.8183" height="21.922"/>
       <rect class="fil1" x="16071" y="1464" width="27.8183" height="21.922"/>
       <rect class="fil1" x="16614" y="1465" width="27.8183" height="21.922"/>
       <rect class="fil1" x="17157" y="1466" width="27.8183" height="21.922"/>
      </g>
      <g>
       <rect class="fil1" x="-2945" y="1846" width="27.8183" height="21.922"/>
       <rect class="fil1" x="-2402" y="1847" width="27.8183" height="21.922"/>
       <rect class="fil1" x="-1858" y="1848" width="27.8183" height="21.922"/>
       <rect class="fil1" x="-1315" y="1849" width="27.8183" height="21.922"/>
       <rect class="fil1" x="-772" y="1850" width="27.8183" height="21.922"/>
       <rect class="fil1" x="-229" y="1851" width="27.8183" height="21.922"/>
       <rect class="fil1" x="314" y="1852" width="27.8183" height="21.922"/>
       <rect class="fil1" x="857" y="1853" width="27.8183" height="21.922"/>
       <rect class="fil1" x="1400" y="1854" width="27.8183" height="21.922"/>
       <rect class="fil1" x="1944" y="1855" width="27.8183" height="21.922"/>
       <rect class="fil1" x="2487" y="1856" width="27.8183" height="21.922"/>
       <rect class="fil1" x="3030" y="1858" width="27.8183" height="21.922"/>
       <rect class="fil1" x="3573" y="1859" width="27.8183" height="21.922"/>
       <rect class="fil1" x="4116" y="1860" width="27.8183" height="21.922"/>
       <rect class="fil1" x="4659" y="1861" width="27.8183" height="21.922"/>
       <rect class="fil1" x="5202" y="1862" width="27.8183" height="21.922"/>
       <rect class="fil1" x="5746" y="1863" width="27.8183" height="21.922"/>
       <rect class="fil1" x="6289" y="1864" width="27.8183" height="21.922"/>
       <rect class="fil1" x="6832" y="1865" width="27.8183" height="21.922"/>
       <rect class="fil1" x="7375" y="1866" width="27.8183" height="21.922"/>
       <rect class="fil1" x="7918" y="1867" width="27.8183" height="21.922"/>
       <rect class="fil1" x="8461" y="1868" width="27.8183" height="21.922"/>
       <rect class="fil1" x="9004" y="1869" width="27.8183" height="21.922"/>
       <rect class="fil1" x="9548" y="1870" width="27.8183" height="21.922"/>
       <rect class="fil1" x="10091" y="1871" width="27.8183" height="21.922"/>
       <rect class="fil1" x="10634" y="1873" width="27.8183" height="21.922"/>
       <rect class="fil1" x="11177" y="1874" width="27.8183" height="21.922"/>
       <rect class="fil1" x="11720" y="1875" width="27.8183" height="21.922"/>
       <rect class="fil1" x="12263" y="1876" width="27.8183" height="21.922"/>
       <rect class="fil1" x="12806" y="1877" width="27.8183" height="21.922"/>
       <rect class="fil1" x="13350" y="1878" width="27.8183" height="21.922"/>
       <rect class="fil1" x="13893" y="1879" width="27.8183" height="21.922"/>
       <rect class="fil1" x="14436" y="1880" width="27.8183" height="21.922"/>
       <rect class="fil1" x="14979" y="1881" width="27.8183" height="21.922"/>
       <rect class="fil1" x="15522" y="1882" width="27.8183" height="21.922"/>
       <rect class="fil1" x="16065" y="1883" width="27.8183" height="21.922"/>
       <rect class="fil1" x="16608" y="1884" width="27.8183" height="21.922"/>
       <rect class="fil1" x="17152" y="1885" width="27.8183" height="21.922"/>
      </g>
      <g>
       <rect class="fil1" x="-2950" y="2265" width="27.8183" height="21.922"/>
       <rect class="fil1" x="-2407" y="2266" width="27.8183" height="21.922"/>
       <rect class="fil1" x="-1864" y="2267" width="27.8183" height="21.922"/>
       <rect class="fil1" x="-1321" y="2268" width="27.8183" height="21.922"/>
       <rect class="fil1" x="-778" y="2269" width="27.8183" height="21.922"/>
       <rect class="fil1" x="-234" y="2270" width="27.8183" height="21.922"/>
       <rect class="fil1" x="309" y="2271" width="27.8183" height="21.922"/>
       <rect class="fil1" x="852" y="2272" width="27.8183" height="21.922"/>
       <rect class="fil1" x="1395" y="2274" width="27.8183" height="21.922"/>
       <rect class="fil1" x="1938" y="2275" width="27.8183" height="21.922"/>
       <rect class="fil1" x="2481" y="2276" width="27.8183" height="21.922"/>
       <rect class="fil1" x="3024" y="2277" width="27.8183" height="21.922"/>
       <rect class="fil1" x="3568" y="2278" width="27.8183" height="21.922"/>
       <rect class="fil1" x="4111" y="2279" width="27.8183" height="21.922"/>
       <rect class="fil1" x="4654" y="2280" width="27.8183" height="21.922"/>
       <rect class="fil1" x="5197" y="2281" width="27.8183" height="21.922"/>
       <rect class="fil1" x="5740" y="2282" width="27.8183" height="21.922"/>
       <rect class="fil1" x="6283" y="2283" width="27.8183" height="21.922"/>
       <rect class="fil1" x="6826" y="2284" width="27.8183" height="21.922"/>
       <rect class="fil1" x="7370" y="2285" width="27.8183" height="21.922"/>
       <rect class="fil1" x="7913" y="2286" width="27.8183" height="21.922"/>
       <rect class="fil1" x="8456" y="2287" width="27.8183" height="21.922"/>
       <rect class="fil1" x="8999" y="2288" width="27.8183" height="21.922"/>
       <rect class="fil1" x="9542" y="2290" width="27.8183" height="21.922"/>
       <rect class="fil1" x="10085" y="2291" width="27.8183" height="21.922"/>
       <rect class="fil1" x="10628" y="2292" width="27.8183" height="21.922"/>
       <rect class="fil1" x="11172" y="2293" width="27.8183" height="21.922"/>
       <rect class="fil1" x="11715" y="2294" width="27.8183" height="21.922"/>
       <rect class="fil1" x="12258" y="2295" width="27.8183" height="21.922"/>
       <rect class="fil1" x="12801" y="2296" width="27.8183" height="21.922"/>
       <rect class="fil1" x="13344" y="2297" width="27.8183" height="21.922"/>
       <rect class="fil1" x="13887" y="2298" width="27.8183" height="21.922"/>
       <rect class="fil1" x="14430" y="2299" width="27.8183" height="21.922"/>
       <rect class="fil1" x="14974" y="2300" width="27.8183" height="21.922"/>
       <rect class="fil1" x="15517" y="2301" width="27.8183" height="21.922"/>
       <rect class="fil1" x="16060" y="2302" width="27.8183" height="21.922"/>
       <rect class="fil1" x="16603" y="2303" width="27.8183" height="21.922"/>
       <rect class="fil1" x="17146" y="2304" width="27.8183" height="21.922"/>
      </g>
      <g>
       <rect class="fil1" x="-2956" y="2684" width="27.8183" height="21.922"/>
       <rect class="fil1" x="-2412" y="2685" width="27.8183" height="21.922"/>
       <rect class="fil1" x="-1869" y="2686" width="27.8183" height="21.922"/>
       <rect class="fil1" x="-1326" y="2687" width="27.8183" height="21.922"/>
       <rect class="fil1" x="-783" y="2688" width="27.8183" height="21.922"/>
       <rect class="fil1" x="-240" y="2690" width="27.8183" height="21.922"/>
       <rect class="fil1" x="303" y="2691" width="27.8183" height="21.922"/>
       <rect class="fil1" x="846" y="2692" width="27.8183" height="21.922"/>
       <rect class="fil1" x="1390" y="2693" width="27.8183" height="21.922"/>
       <rect class="fil1" x="1933" y="2694" width="27.8183" height="21.922"/>
       <rect class="fil1" x="2476" y="2695" width="27.8183" height="21.922"/>
       <rect class="fil1" x="3019" y="2696" width="27.8183" height="21.922"/>
       <rect class="fil1" x="3562" y="2697" width="27.8183" height="21.922"/>
       <rect class="fil1" x="4105" y="2698" width="27.8183" height="21.922"/>
       <rect class="fil1" x="4648" y="2699" width="27.8183" height="21.922"/>
       <rect class="fil1" x="5192" y="2700" width="27.8183" height="21.922"/>
       <rect class="fil1" x="5735" y="2701" width="27.8183" height="21.922"/>
       <rect class="fil1" x="6278" y="2702" width="27.8183" height="21.922"/>
       <rect class="fil1" x="6821" y="2703" width="27.8183" height="21.922"/>
       <rect class="fil1" x="7364" y="2704" width="27.8183" height="21.922"/>
       <rect class="fil1" x="7907" y="2706" width="27.8183" height="21.922"/>
       <rect class="fil1" x="8450" y="2707" width="27.8183" height="21.922"/>
       <rect class="fil1" x="8994" y="2708" width="27.8183" height="21.922"/>
       <rect class="fil1" x="9537" y="2709" width="27.8183" height="21.922"/>
       <rect class="fil1" x="10080" y="2710" width="27.8183" height="21.922"/>
       <rect class="fil1" x="10623" y="2711" width="27.8183" height="21.922"/>
       <rect class="fil1" x="11166" y="2712" width="27.8183" height="21.922"/>
       <rect class="fil1" x="11709" y="2713" width="27.8183" height="21.922"/>
       <rect class="fil1" x="12252" y="2714" width="27.8183" height="21.922"/>
       <rect class="fil1" x="12796" y="2715" width="27.8183" height="21.922"/>
       <rect class="fil1" x="13339" y="2716" width="27.8183" height="21.922"/>
       <rect class="fil1" x="13882" y="2717" width="27.8183" height="21.922"/>
       <rect class="fil1" x="14425" y="2718" width="27.8183" height="21.922"/>
       <rect class="fil1" x="14968" y="2719" width="27.8183" height="21.922"/>
       <rect class="fil1" x="15511" y="2720" width="27.8183" height="21.922"/>
       <rect class="fil1" x="16054" y="2722" width="27.8183" height="21.922"/>
       <rect class="fil1" x="16598" y="2723" width="27.8183" height="21.922"/>
       <rect class="fil1" x="17141" y="2724" width="27.8183" height="21.922"/>
      </g>
      <g>
       <rect class="fil1" x="-2961" y="3103" width="27.8183" height="21.922"/>
       <rect class="fil1" x="-2418" y="3104" width="27.8183" height="21.922"/>
       <rect class="fil1" x="-1875" y="3106" width="27.8183" height="21.922"/>
       <rect class="fil1" x="-1332" y="3107" width="27.8183" height="21.922"/>
       <rect class="fil1" x="-788" y="3108" width="27.8183" height="21.922"/>
       <rect class="fil1" x="-245" y="3109" width="27.8183" height="21.922"/>
       <rect class="fil1" x="298" y="3110" width="27.8183" height="21.922"/>
       <rect class="fil1" x="841" y="3111" width="27.8183" height="21.922"/>
       <rect class="fil1" x="1384" y="3112" width="27.8183" height="21.922"/>
       <rect class="fil1" x="1927" y="3113" width="27.8183" height="21.922"/>
       <rect class="fil1" x="2470" y="3114" width="27.8183" height="21.922"/>
       <rect class="fil1" x="3014" y="3115" width="27.8183" height="21.922"/>
       <rect class="fil1" x="3557" y="3116" width="27.8183" height="21.922"/>
       <rect class="fil1" x="4100" y="3117" width="27.8183" height="21.922"/>
       <rect class="fil1" x="4643" y="3118" width="27.8183" height="21.922"/>
       <rect class="fil1" x="5186" y="3119" width="27.8183" height="21.922"/>
       <rect class="fil1" x="5729" y="3120" width="27.8183" height="21.922"/>
       <rect class="fil1" x="6272" y="3122" width="27.8183" height="21.922"/>
       <rect class="fil1" x="6816" y="3123" width="27.8183" height="21.922"/>
       <rect class="fil1" x="7359" y="3124" width="27.8183" height="21.922"/>
       <rect class="fil1" x="7902" y="3125" width="27.8183" height="21.922"/>
       <rect class="fil1" x="8445" y="3126" width="27.8183" height="21.922"/>
       <rect class="fil1" x="8988" y="3127" width="27.8183" height="21.922"/>
       <rect class="fil1" x="9531" y="3128" width="27.8183" height="21.922"/>
       <rect class="fil1" x="10074" y="3129" width="27.8183" height="21.922"/>
       <rect class="fil1" x="10618" y="3130" width="27.8183" height="21.922"/>
       <rect class="fil1" x="11161" y="3131" width="27.8183" height="21.922"/>
       <rect class="fil1" x="11704" y="3132" width="27.8183" height="21.922"/>
       <rect class="fil1" x="12247" y="3133" width="27.8183" height="21.922"/>
       <rect class="fil1" x="12790" y="3134" width="27.8183" height="21.922"/>
       <rect class="fil1" x="13333" y="3135" width="27.8183" height="21.922"/>
       <rect class="fil1" x="13876" y="3136" width="27.8183" height="21.922"/>
       <rect class="fil1" x="14420" y="3138" width="27.8183" height="21.922"/>
       <rect class="fil1" x="14963" y="3139" width="27.8183" height="21.922"/>
       <rect class="fil1" x="15506" y="3140" width="27.8183" height="21.922"/>
       <rect class="fil1" x="16049" y="3141" width="27.8183" height="21.922"/>
       <rect class="fil1" x="16592" y="3142" width="27.8183" height="21.922"/>
       <rect class="fil1" x="17135" y="3143" width="27.8183" height="21.922"/>
      </g>
      <g>
       <rect class="fil1" x="-2966" y="3523" width="27.8183" height="21.922"/>
       <rect class="fil1" x="-2423" y="3524" width="27.8183" height="21.922"/>
       <rect class="fil1" x="-1880" y="3525" width="27.8183" height="21.922"/>
       <rect class="fil1" x="-1337" y="3526" width="27.8183" height="21.922"/>
       <rect class="fil1" x="-794" y="3527" width="27.8183" height="21.922"/>
       <rect class="fil1" x="-251" y="3528" width="27.8183" height="21.922"/>
       <rect class="fil1" x="292" y="3529" width="27.8183" height="21.922"/>
       <rect class="fil1" x="836" y="3530" width="27.8183" height="21.922"/>
       <rect class="fil1" x="1379" y="3531" width="27.8183" height="21.922"/>
       <rect class="fil1" x="1922" y="3532" width="27.8183" height="21.922"/>
       <rect class="fil1" x="2465" y="3533" width="27.8183" height="21.922"/>
       <rect class="fil1" x="3008" y="3534" width="27.8183" height="21.922"/>
       <rect class="fil1" x="3551" y="3535" width="27.8183" height="21.922"/>
       <rect class="fil1" x="4094" y="3536" width="27.8183" height="21.922"/>
       <rect class="fil1" x="4638" y="3538" width="27.8183" height="21.922"/>
       <rect class="fil1" x="5181" y="3539" width="27.8183" height="21.922"/>
       <rect class="fil1" x="5724" y="3540" width="27.8183" height="21.922"/>
       <rect class="fil1" x="6267" y="3541" width="27.8183" height="21.922"/>
       <rect class="fil1" x="6810" y="3542" width="27.8183" height="21.922"/>
       <rect class="fil1" x="7353" y="3543" width="27.8183" height="21.922"/>
       <rect class="fil1" x="7896" y="3544" width="27.8183" height="21.922"/>
       <rect class="fil1" x="8440" y="3545" width="27.8183" height="21.922"/>
       <rect class="fil1" x="8983" y="3546" width="27.8183" height="21.922"/>
       <rect class="fil1" x="9526" y="3547" width="27.8183" height="21.922"/>
       <rect class="fil1" x="10069" y="3548" width="27.8183" height="21.922"/>
       <rect class="fil1" x="10612" y="3549" width="27.8183" height="21.922"/>
       <rect class="fil1" x="11155" y="3550" width="27.8183" height="21.922"/>
       <rect class="fil1" x="11698" y="3551" width="27.8183" height="21.922"/>
       <rect class="fil1" x="12242" y="3552" width="27.8183" height="21.922"/>
       <rect class="fil1" x="12785" y="3554" width="27.8183" height="21.922"/>
       <rect class="fil1" x="13328" y="3555" width="27.8183" height="21.922"/>
       <rect class="fil1" x="13871" y="3556" width="27.8183" height="21.922"/>
       <rect class="fil1" x="14414" y="3557" width="27.8183" height="21.922"/>
       <rect class="fil1" x="14957" y="3558" width="27.8183" height="21.922"/>
       <rect class="fil1" x="15500" y="3559" width="27.8183" height="21.922"/>
       <rect class="fil1" x="16044" y="3560" width="27.8183" height="21.922"/>
       <rect class="fil1" x="16587" y="3561" width="27.8183" height="21.922"/>
       <rect class="fil1" x="17130" y="3562" width="27.8183" height="21.922"/>
      </g>
      <g>
       <rect class="fil1" x="-2972" y="3942" width="27.8183" height="21.922"/>
       <rect class="fil1" x="-2429" y="3943" width="27.8183" height="21.922"/>
       <rect class="fil1" x="-1886" y="3944" width="27.8183" height="21.922"/>
       <rect class="fil1" x="-1342" y="3945" width="27.8183" height="21.922"/>
       <rect class="fil1" x="-799" y="3946" width="27.8183" height="21.922"/>
       <rect class="fil1" x="-256" y="3947" width="27.8183" height="21.922"/>
       <rect class="fil1" x="287" y="3948" width="27.8183" height="21.922"/>
       <rect class="fil1" x="830" y="3949" width="27.8183" height="21.922"/>
       <rect class="fil1" x="1373" y="3950" width="27.8183" height="21.922"/>
       <rect class="fil1" x="1916" y="3951" width="27.8183" height="21.922"/>
       <rect class="fil1" x="2460" y="3952" width="27.8183" height="21.922"/>
       <rect class="fil1" x="3003" y="3954" width="27.8183" height="21.922"/>
       <rect class="fil1" x="3546" y="3955" width="27.8183" height="21.922"/>
       <rect class="fil1" x="4089" y="3956" width="27.8183" height="21.922"/>
       <rect class="fil1" x="4632" y="3957" width="27.8183" height="21.922"/>
       <rect class="fil1" x="5175" y="3958" width="27.8183" height="21.922"/>
       <rect class="fil1" x="5718" y="3959" width="27.8183" height="21.922"/>
       <rect class="fil1" x="6262" y="3960" width="27.8183" height="21.922"/>
       <rect class="fil1" x="6805" y="3961" width="27.8183" height="21.922"/>
       <rect class="fil1" x="7348" y="3962" width="27.8183" height="21.922"/>
       <rect class="fil1" x="7891" y="3963" width="27.8183" height="21.922"/>
       <rect class="fil1" x="8434" y="3964" width="27.8183" height="21.922"/>
       <rect class="fil1" x="8977" y="3965" width="27.8183" height="21.922"/>
       <rect class="fil1" x="9520" y="3966" width="27.8183" height="21.922"/>
       <rect class="fil1" x="10064" y="3967" width="27.8183" height="21.922"/>
       <rect class="fil1" x="10607" y="3968" width="27.8183" height="21.922"/>
       <rect class="fil1" x="11150" y="3970" width="27.8183" height="21.922"/>
       <rect class="fil1" x="11693" y="3971" width="27.8183" height="21.922"/>
       <rect class="fil1" x="12236" y="3972" width="27.8183" height="21.922"/>
       <rect class="fil1" x="12779" y="3973" width="27.8183" height="21.922"/>
       <rect class="fil1" x="13322" y="3974" width="27.8183" height="21.922"/>
       <rect class="fil1" x="13866" y="3975" width="27.8183" height="21.922"/>
       <rect class="fil1" x="14409" y="3976" width="27.8183" height="21.922"/>
       <rect class="fil1" x="14952" y="3977" width="27.8183" height="21.922"/>
       <rect class="fil1" x="15495" y="3978" width="27.8183" height="21.922"/>
       <rect class="fil1" x="16038" y="3979" width="27.8183" height="21.922"/>
       <rect class="fil1" x="16581" y="3980" width="27.8183" height="21.922"/>
       <rect class="fil1" x="17124" y="3981" width="27.8183" height="21.922"/>
      </g>
      <g>
       <rect class="fil1" x="-2977" y="4361" width="27.8183" height="21.922"/>
       <rect class="fil1" x="-2434" y="4362" width="27.8183" height="21.922"/>
       <rect class="fil1" x="-1891" y="4363" width="27.8183" height="21.922"/>
       <rect class="fil1" x="-1348" y="4364" width="27.8183" height="21.922"/>
       <rect class="fil1" x="-805" y="4365" width="27.8183" height="21.922"/>
       <rect class="fil1" x="-262" y="4366" width="27.8183" height="21.922"/>
       <rect class="fil1" x="282" y="4367" width="27.8183" height="21.922"/>
       <rect class="fil1" x="825" y="4368" width="27.8183" height="21.922"/>
       <rect class="fil1" x="1368" y="4370" width="27.8183" height="21.922"/>
       <rect class="fil1" x="1911" y="4371" width="27.8183" height="21.922"/>
       <rect class="fil1" x="2454" y="4372" width="27.8183" height="21.922"/>
       <rect class="fil1" x="2997" y="4373" width="27.8183" height="21.922"/>
       <rect class="fil1" x="3540" y="4374" width="27.8183" height="21.922"/>
       <rect class="fil1" x="4084" y="4375" width="27.8183" height="21.922"/>
       <rect class="fil1" x="4627" y="4376" width="27.8183" height="21.922"/>
       <rect class="fil1" x="5170" y="4377" width="27.8183" height="21.922"/>
       <rect class="fil1" x="5713" y="4378" width="27.8183" height="21.922"/>
       <rect class="fil1" x="6256" y="4379" width="27.8183" height="21.922"/>
       <rect class="fil1" x="6799" y="4380" width="27.8183" height="21.922"/>
       <rect class="fil1" x="7342" y="4381" width="27.8183" height="21.922"/>
       <rect class="fil1" x="7886" y="4382" width="27.8183" height="21.922"/>
       <rect class="fil1" x="8429" y="4383" width="27.8183" height="21.922"/>
       <rect class="fil1" x="8972" y="4384" width="27.8183" height="21.922"/>
       <rect class="fil1" x="9515" y="4386" width="27.8183" height="21.922"/>
       <rect class="fil1" x="10058" y="4387" width="27.8183" height="21.922"/>
       <rect class="fil1" x="10601" y="4388" width="27.8183" height="21.922"/>
       <rect class="fil1" x="11144" y="4389" width="27.8183" height="21.922"/>
       <rect class="fil1" x="11688" y="4390" width="27.8183" height="21.922"/>
       <rect class="fil1" x="12231" y="4391" width="27.8183" height="21.922"/>
       <rect class="fil1" x="12774" y="4392" width="27.8183" height="21.922"/>
       <rect class="fil1" x="13317" y="4393" width="27.8183" height="21.922"/>
       <rect class="fil1" x="13860" y="4394" width="27.8183" height="21.922"/>
       <rect class="fil1" x="14403" y="4395" width="27.8183" height="21.922"/>
       <rect class="fil1" x="14946" y="4396" width="27.8183" height="21.922"/>
       <rect class="fil1" x="15490" y="4397" width="27.8183" height="21.922"/>
       <rect class="fil1" x="16033" y="4398" width="27.8183" height="21.922"/>
       <rect class="fil1" x="16576" y="4399" width="27.8183" height="21.922"/>
       <rect class="fil1" x="17119" y="4400" width="27.8183" height="21.922"/>
      </g>
      <g>
       <rect class="fil1" x="-2983" y="4780" width="27.8183" height="21.922"/>
       <rect class="fil1" x="-2440" y="4781" width="27.8183" height="21.922"/>
       <rect class="fil1" x="-1896" y="4782" width="27.8183" height="21.922"/>
       <rect class="fil1" x="-1353" y="4783" width="27.8183" height="21.922"/>
       <rect class="fil1" x="-810" y="4784" width="27.8183" height="21.922"/>
       <rect class="fil1" x="-267" y="4786" width="27.8183" height="21.922"/>
       <rect class="fil1" x="276" y="4787" width="27.8183" height="21.922"/>
       <rect class="fil1" x="819" y="4788" width="27.8183" height="21.922"/>
       <rect class="fil1" x="1362" y="4789" width="27.8183" height="21.922"/>
       <rect class="fil1" x="1906" y="4790" width="27.8183" height="21.922"/>
       <rect class="fil1" x="2449" y="4791" width="27.8183" height="21.922"/>
       <rect class="fil1" x="2992" y="4792" width="27.8183" height="21.922"/>
       <rect class="fil1" x="3535" y="4793" width="27.8183" height="21.922"/>
       <rect class="fil1" x="4078" y="4794" width="27.8183" height="21.922"/>
       <rect class="fil1" x="4621" y="4795" width="27.8183" height="21.922"/>
       <rect class="fil1" x="5164" y="4796" width="27.8183" height="21.922"/>
       <rect class="fil1" x="5708" y="4797" width="27.8183" height="21.922"/>
       <rect class="fil1" x="6251" y="4798" width="27.8183" height="21.922"/>
       <rect class="fil1" x="6794" y="4799" width="27.8183" height="21.922"/>
       <rect class="fil1" x="7337" y="4800" width="27.8183" height="21.922"/>
       <rect class="fil1" x="7880" y="4802" width="27.8183" height="21.922"/>
       <rect class="fil1" x="8423" y="4803" width="27.8183" height="21.922"/>
       <rect class="fil1" x="8966" y="4804" width="27.8183" height="21.922"/>
       <rect class="fil1" x="9510" y="4805" width="27.8183" height="21.922"/>
       <rect class="fil1" x="10053" y="4806" width="27.8183" height="21.922"/>
       <rect class="fil1" x="10596" y="4807" width="27.8183" height="21.922"/>
       <rect class="fil1" x="11139" y="4808" width="27.8183" height="21.922"/>
       <rect class="fil1" x="11682" y="4809" width="27.8183" height="21.922"/>
       <rect class="fil1" x="12225" y="4810" width="27.8183" height="21.922"/>
       <rect class="fil1" x="12768" y="4811" width="27.8183" height="21.922"/>
       <rect class="fil1" x="13312" y="4812" width="27.8183" height="21.922"/>
       <rect class="fil1" x="13855" y="4813" width="27.8183" height="21.922"/>
       <rect class="fil1" x="14398" y="4814" width="27.8183" height="21.922"/>
       <rect class="fil1" x="14941" y="4815" width="27.8183" height="21.922"/>
       <rect class="fil1" x="15484" y="4816" width="27.8183" height="21.922"/>
       <rect class="fil1" x="16027" y="4818" width="27.8183" height="21.922"/>
       <rect class="fil1" x="16570" y="4819" width="27.8183" height="21.922"/>
       <rect class="fil1" x="17114" y="4820" width="27.8183" height="21.922"/>
      </g>
     </g>
    </g>
   </g>
   <polygon class="fil2" points="0,0 14243,0 14243,4175 0,4175 "/>
   <path class="fil3" d="M2739 2850l3 -118c22,-6 61,-15 118,-25 90,-17 145,-32 164,-46 20,-13 43,-46 71,-97l356 -902 416 -1060c40,0 77,0 113,0l81 0 16 31 305 702c70,149 132,294 186,434 56,140 103,255 142,344 24,53 56,133 97,240 21,58 53,131 96,218 25,48 42,75 54,83 22,17 56,28 104,34 48,6 101,19 156,39 6,38 9,66 9,85 0,8 -1,20 -2,38 -87,0 -183,-4 -287,-13 -105,-8 -199,-12 -283,-12 -92,0 -160,1 -201,4l-299 14 -87 3c0,-39 2,-78 6,-114l195 -41c59,-14 93,-26 102,-33 12,-12 18,-25 18,-39 0,-15 -3,-31 -9,-46l-70 -167 -138 -335 -674 0c-24,54 -76,188 -154,399 -23,60 -34,101 -34,123 0,29 8,50 25,62 27,22 78,38 155,46 11,3 52,9 125,19 1,41 2,69 2,84 0,12 -1,25 -4,39 -73,0 -246,-9 -521,-27l-72 13c-87,14 -170,21 -249,21l-31 0zm828 -958c275,3 437,5 486,5l44 -2c-35,-101 -81,-219 -137,-354 -57,-135 -103,-238 -138,-308l-255 659zm2139 968l3 -124c26,-6 69,-14 129,-25 60,-12 119,-25 179,-40l33 -20c11,-46 17,-92 17,-140l0 -10 -6 -394 1 -165 -6 -243 3 -290 -21 -570c-17,-15 -74,-29 -170,-45 -23,-4 -58,-12 -102,-25l-42 -15 0 -117 232 8c141,13 348,20 621,20 138,0 280,-4 429,-11l34 -2 86 2 35 -2 74 0 315 -10c14,0 33,-1 56,-4 23,-2 44,-4 64,-5 7,35 12,68 14,103l25 320c0,34 -3,60 -10,78 -43,6 -75,9 -95,9 -24,0 -43,-5 -57,-15 -7,-7 -21,-33 -40,-78 -50,-114 -91,-182 -126,-204 -35,-21 -130,-31 -288,-31l-242 7c-103,1 -184,7 -244,17 -13,2 -31,8 -56,16 -15,27 -22,60 -22,102l3 203 -3 232c0,118 4,191 12,219 10,7 19,11 26,12l125 1 211 0c47,0 119,-5 216,-16 67,-9 108,-18 123,-28 29,-18 49,-41 61,-69 12,-28 21,-96 27,-204 6,0 22,-1 48,-2 16,-1 27,-2 33,-2 13,0 39,2 77,6l-10 272c0,58 -2,108 -5,150l3 37c2,12 2,96 2,253 0,10 0,26 -2,50 -22,5 -40,7 -53,7 -10,0 -33,-3 -69,-10 -11,-21 -23,-53 -36,-93 -27,-89 -56,-142 -88,-156 -56,-28 -233,-41 -531,-41 -43,0 -94,4 -152,12 -7,47 -12,103 -12,165l9 511c1,95 12,153 32,174 12,14 56,28 131,41l35 3c53,4 100,11 139,23l48 10c5,29 7,52 7,68 0,17 -2,38 -5,65l-34 -2 -54 2 -250 -13c-28,-1 -160,-1 -395,-1 -64,0 -126,3 -184,10 -93,11 -144,16 -152,16 -76,0 -128,-1 -156,-2zm2556 -2089l-7 -108c15,-6 25,-9 34,-9 97,6 195,10 293,13 40,1 66,1 77,1 43,0 92,-2 149,-5l230 -9c8,4 13,10 16,18l-14 80c-23,14 -45,25 -66,36 -47,25 -71,45 -71,62 0,14 6,33 18,56 7,13 16,37 28,70 20,55 76,191 169,405l455 1029c61,-108 154,-289 283,-545l-257 -599c-48,-113 -89,-206 -125,-278 -12,-24 -22,-47 -30,-69 -7,-11 -17,-28 -29,-50 -11,-22 -30,-40 -55,-55 -24,-14 -84,-32 -177,-53l7 -103c38,0 89,1 155,4 95,7 157,10 184,10l247 -4 305 -17c6,1 14,1 24,1l2 60 0 21c0,7 -2,16 -7,28 -20,5 -52,11 -95,15 -31,3 -52,9 -65,19 -12,10 -18,22 -18,36 0,34 12,76 37,125 10,21 25,54 42,98 59,146 105,252 137,319l124 -247c57,-114 94,-197 112,-251 3,-11 4,-21 4,-29l0 -10c-14,-15 -27,-25 -39,-31 -29,-12 -78,-28 -149,-44 -2,-22 -3,-39 -3,-50 0,-13 1,-32 5,-57 39,0 148,3 328,7 106,4 174,5 204,5 25,0 46,0 65,-1 19,0 38,0 59,0l3 14 -4 78 -3 9c-127,36 -203,62 -227,78 -25,17 -48,43 -71,81 -58,99 -167,307 -326,623l8 16 112 252 193 439c19,43 34,75 42,95l221 -563 309 -765 49 -143c3,-10 4,-18 4,-28l-6 -29c-39,-12 -71,-22 -97,-28 -25,-6 -46,-15 -65,-26 -4,-38 -6,-62 -6,-71 0,-10 5,-21 13,-36l28 -7 263 11 174 -7 37 4c4,21 5,39 5,55 0,20 -4,37 -12,49 -6,9 -18,16 -35,21 -49,23 -82,45 -99,66 -13,13 -32,51 -55,114 -102,266 -207,522 -315,769 -108,246 -268,638 -482,1176l-177 0c-12,-40 -24,-75 -39,-103 -34,-74 -54,-121 -60,-140l-196 -435c-32,-73 -57,-127 -78,-162 -3,-6 -8,-14 -14,-24 -2,6 -65,120 -187,343 -122,222 -212,396 -269,521l-185 0c-42,-125 -124,-317 -247,-575l-568 -1288c-60,-131 -103,-209 -130,-234 -9,-8 -27,-18 -53,-29 -9,-3 -23,-8 -41,-15z"/>
   <g>
    <path class="fil4" d="M749 2325c9,-5 16,-8 23,-8l22 0c4,0 11,0 22,-1 48,-4 76,-8 85,-13 21,-11 40,-32 56,-61 32,-63 68,-153 108,-269 20,-55 32,-88 37,-100 15,-37 30,-76 44,-117l88 -245c13,-38 46,-126 98,-264 13,-35 29,-82 47,-140l30 -2 32 1c27,53 51,110 71,171 11,33 30,81 55,145l142 384 75 208c40,118 66,191 79,218 12,27 24,45 34,53 3,3 15,7 35,12 20,5 34,8 42,11 29,8 49,14 60,20 2,6 4,11 4,15 0,3 -1,7 -3,13 -20,1 -34,1 -42,1 -32,0 -88,0 -168,-1l-93 -2 -112 1c-8,0 -16,0 -23,-1 -8,0 -15,0 -20,0l-21 0c-7,-1 -13,-3 -18,-6 0,-9 1,-18 4,-26 7,-4 14,-6 20,-6l96 -7c25,-1 44,-5 57,-10 4,-12 6,-20 6,-26 0,-11 -8,-40 -24,-87 -12,-31 -21,-61 -30,-89 -8,-28 -41,-121 -99,-278 -25,-4 -47,-7 -67,-7l-198 2 -59 -1c-21,0 -44,2 -70,5 -8,19 -13,32 -15,40l-82 257c-35,99 -52,152 -52,162 0,6 3,15 8,28 13,4 31,8 52,11l127 11c7,6 11,11 11,15 0,3 -1,8 -3,14 -28,1 -50,1 -65,1 -49,0 -107,-2 -173,-7 -31,-1 -52,-2 -65,-2 -13,0 -36,1 -68,2 -21,1 -37,2 -46,2 -15,0 -34,-1 -58,-3l0 -6c0,-4 1,-10 4,-18zm444 -558c66,3 142,5 226,5 49,0 91,-1 128,-4 -6,-24 -14,-46 -22,-67 -40,-106 -62,-165 -67,-176l-84 -212 -10 -17c-3,8 -17,39 -41,95 -39,95 -67,170 -85,223 -8,23 -16,47 -25,71 -8,23 -14,40 -16,49 -2,10 -5,19 -10,29l6 4zm3287 605l1 -23c14,-7 36,-13 68,-19 32,-5 54,-10 66,-15 12,-6 22,-13 30,-21 6,-28 9,-77 9,-148l0 -724 3 -120c0,-25 -6,-42 -15,-51 -10,-9 -36,-18 -77,-26 -42,-8 -66,-14 -74,-19 -7,-5 -11,-10 -11,-16 0,-3 1,-7 3,-12 8,-5 16,-8 25,-8 9,0 28,1 57,2l26 0c9,0 34,-1 74,-2l130 0 268 -4 285 -11 25 0 40 -1c12,0 22,3 30,9 4,10 6,17 7,21l-1 38 8 165c0,7 0,16 -1,26 -10,5 -19,7 -27,7 -5,0 -9,-2 -12,-6 -5,-7 -8,-20 -9,-39 -3,-27 -12,-61 -29,-103 -8,-20 -21,-34 -40,-41 -38,-14 -100,-21 -189,-21 -42,0 -81,1 -117,3 -36,2 -58,3 -66,3l-73 -1c-30,0 -55,4 -74,13 -13,6 -19,19 -19,40l0 14c2,32 3,67 3,106l-3 254c0,24 2,48 5,70l27 2 51 -3 176 0c71,0 120,-5 147,-15 19,-6 32,-17 42,-30 3,-4 11,-29 23,-74l12 -77c7,-4 13,-6 17,-6 3,0 8,2 15,5 3,14 5,36 6,65l13 341c-10,5 -18,7 -24,7l-10 -2c-10,-62 -26,-110 -47,-146 -7,-12 -15,-19 -25,-21 -16,-4 -89,-6 -221,-6 -41,0 -69,1 -85,1 -37,2 -59,3 -66,3l-10 0c-18,0 -32,3 -40,7 -2,8 -3,13 -3,16l0 65c0,7 0,38 0,93l-1 308c0,9 2,20 7,33 13,11 37,17 71,21 35,3 67,11 98,24 17,9 26,18 26,27 0,5 -1,9 -4,13 -2,3 -7,6 -13,8 -51,-10 -121,-15 -212,-15 -47,0 -98,4 -152,12 -36,6 -78,8 -125,8l-19 -4zm4411 -1171l-1 -16c9,-11 34,-17 74,-17l86 1 50 1 23 -1c81,0 130,1 146,4 1,7 1,13 1,17 0,5 0,14 -2,24l-89 4c-5,0 -10,2 -18,4 -3,7 -4,11 -4,14 0,4 2,10 6,18 5,11 9,22 14,34l59 164 140 350c16,43 27,71 33,83 17,39 40,94 66,164 10,24 32,77 68,158 2,5 5,13 11,24 28,-45 69,-125 123,-238 42,-87 69,-147 79,-180l-7 -18 -159 -363c-21,-45 -37,-81 -49,-107 -25,-56 -42,-88 -54,-96 -11,-8 -44,-14 -100,-17l-19 -5c-5,-5 -8,-12 -8,-19 1,-6 4,-10 8,-13 20,-1 34,-1 43,-1l59 2 29 -1 52 0 46 -1 48 0 88 -2c5,0 14,0 25,0l15 0c9,0 15,2 20,7 4,4 6,9 6,15 0,4 -1,10 -4,16 -9,4 -28,7 -53,9 -37,5 -59,9 -65,12 -5,4 -9,9 -9,15 0,12 25,73 72,184l95 211c29,-57 69,-147 118,-269 21,-51 32,-88 32,-113 0,-13 -5,-24 -16,-35 -8,-7 -26,-12 -54,-15l-20 -3 -17 -7 0 -7c0,-4 1,-9 4,-15 6,-6 12,-8 17,-9 9,-1 53,0 130,2l63 0 40 1 65 -1c5,1 12,2 22,5 5,5 8,9 8,14 0,6 -3,12 -8,16 -5,4 -17,8 -36,11 -46,8 -81,21 -105,37 -16,12 -29,29 -42,51l-68 151c-16,46 -29,80 -40,104 -4,14 -12,33 -24,56l-39 89c7,16 19,42 35,79l96 222c4,10 17,38 39,83 21,46 39,87 53,126l14 -45 2 -4 57 -148c20,-45 40,-93 60,-143l72 -180 108 -307c11,-35 20,-69 27,-102l3 -15c2,-6 3,-12 3,-14 0,-9 -4,-17 -13,-24 -9,-7 -40,-17 -92,-29 -5,-2 -10,-5 -15,-9 -2,-7 -3,-13 -3,-17l1 -7c26,-1 42,-2 49,-2l72 2 81 -1 70 0 28 2 1 10c0,4 -1,11 -2,20 -45,17 -73,30 -84,37 -11,7 -19,15 -25,24 -6,9 -17,32 -33,70 -2,4 -21,60 -59,168 -8,15 -16,37 -25,63 -3,8 -8,21 -16,40l-15 38 -10 26c-41,113 -87,231 -136,354l-101 278 -40 106c-9,2 -16,3 -21,3 -4,0 -10,0 -18,-1 -8,-23 -25,-66 -53,-131 -71,-162 -136,-297 -193,-405l-10 19c-32,60 -69,140 -113,239l-72 147c-29,63 -53,107 -71,131l-47 2 -151 -369 -124 -293 -110 -278c-8,-18 -14,-35 -20,-51 -4,-12 -8,-24 -12,-36 -6,-20 -23,-63 -52,-132 -11,-18 -29,-29 -54,-34 -25,-5 -43,-10 -55,-15zm-6759 1158c1,-8 3,-15 6,-20 39,-11 78,-18 115,-21 24,-2 40,-8 47,-17 5,-7 8,-31 9,-72l5 -198 -1 -135 1 -176 0 -46c1,-106 0,-172 -1,-198 -1,-5 -3,-12 -7,-21 -13,-6 -24,-10 -32,-12 -9,-2 -49,-9 -119,-22 -1,-5 -1,-9 -1,-12 0,-3 0,-7 1,-12 9,0 25,0 47,1l115 5 66 1 20 0c2,0 10,0 22,1 30,0 47,0 51,-1l61 -4c41,0 70,1 86,2 0,9 -2,18 -5,29 -5,1 -32,2 -78,4 -47,1 -74,4 -81,8 -12,7 -18,27 -18,61 0,8 0,24 -1,48l0 46 1 139 0 47 1 249 -2 213 1 46c0,15 2,25 7,28 13,1 50,1 111,2l51 0 130 -5c34,-1 58,-4 73,-10 14,-6 39,-23 73,-51 20,-18 36,-36 48,-55 2,-4 6,-10 13,-18 9,-13 22,-39 38,-78l25 0c-4,18 -7,35 -10,51 -15,71 -25,130 -31,177 -1,10 -2,19 -3,28l-281 -9c-242,0 -385,2 -430,6 -14,0 -29,1 -45,1l-78 0zm941 0c1,-8 3,-15 6,-20 40,-11 78,-18 115,-21 24,-2 40,-8 47,-17 5,-7 8,-31 9,-72l5 -198 -1 -135 1 -176 0 -46c1,-106 0,-172 -1,-198 -1,-5 -3,-12 -6,-21 -14,-6 -25,-10 -33,-12 -9,-2 -49,-9 -119,-22 -1,-5 -1,-9 -1,-12 0,-3 0,-7 1,-12 9,0 25,0 47,1l115 5 66 1 20 0c2,0 10,0 22,1 30,0 47,0 51,-1l61 -4c41,0 70,1 86,2 0,9 -2,18 -5,29 -5,1 -32,2 -78,4 -47,1 -74,4 -81,8 -12,7 -18,27 -18,61 0,8 0,24 -1,48l0 46 1 139 0 47 1 249 -2 213 1 46c0,15 2,25 7,28 13,1 50,1 111,2l51 0 130 -5c34,-1 58,-4 73,-10 14,-6 39,-23 73,-51 20,-18 36,-36 48,-55 2,-4 6,-10 13,-18 9,-13 22,-39 38,-78l25 0c-3,18 -7,35 -10,51 -15,71 -25,130 -30,177 -1,10 -3,19 -4,28l-281 -9c-241,0 -385,2 -430,6 -14,0 -29,1 -45,1l-78 0zm2529 -26c11,-5 23,-7 34,-8 77,-5 121,-14 132,-28 11,-13 17,-78 17,-193l-1 -80 0 -83 -3 -91 2 -54 -1 -58 0 -70 -1 -31 1 -39c1,-9 1,-20 1,-32 0,-32 -2,-65 -5,-100 -2,-7 -4,-14 -8,-21 -19,-9 -49,-16 -90,-19 -42,-3 -65,-7 -71,-11 -4,-3 -6,-11 -7,-23l64 0 200 6c51,0 120,-2 205,-6 0,8 0,15 -1,22 -10,3 -27,6 -51,9 -48,5 -77,11 -87,15 -7,3 -11,7 -15,13 -4,9 -7,26 -8,51l-4 97 3 335 0 133c-1,41 -2,70 -2,85 0,56 2,92 4,108 3,15 8,27 15,33 7,7 18,12 34,17 23,5 42,8 55,9 28,1 46,5 54,12 2,6 2,12 2,16l0 6c-46,2 -80,3 -101,3 -13,0 -35,-1 -68,-3l-104 2 -179 -1 -14 0 -2 -21zm592 -899l-1 -36c78,0 134,-2 171,-5 13,-2 23,-2 29,-2 4,0 11,0 20,1 21,18 41,38 59,60 4,5 8,10 13,15l158 175 23 28c32,37 61,69 87,96 27,26 78,82 154,166l179 199c18,20 40,44 68,73l0 -12c-3,-70 -4,-107 -4,-110l3 -46 -2 -71 0 -32c0,-20 -1,-84 -4,-191 -1,-14 -2,-42 -5,-82 -3,-40 -5,-76 -5,-107 0,-55 -3,-87 -10,-96 -4,-7 -26,-13 -65,-20 -9,-1 -23,-2 -43,-5 -23,-1 -36,-2 -40,-4 -5,-1 -9,-5 -13,-12 1,-8 4,-16 7,-23 14,-4 27,-6 40,-6 15,0 32,2 53,6 21,3 40,5 57,5 23,0 59,-1 109,-3 27,-2 47,-3 58,-3l12 0 -1 23c-8,4 -19,6 -34,7 -13,0 -27,2 -39,6 -18,5 -29,10 -32,14 -12,13 -19,27 -19,40l9 238 6 109 -1 31 5 151c3,103 5,193 5,269 0,17 -1,53 -3,108l-40 3c-18,-20 -78,-83 -181,-190 -24,-25 -40,-42 -49,-52l-64 -74c-25,-28 -41,-46 -49,-53 -7,-8 -13,-13 -16,-17 -55,-62 -125,-140 -212,-233 -24,-25 -58,-64 -104,-118 -28,-33 -46,-54 -54,-61 -7,-8 -18,-17 -31,-26l-2 26c0,97 3,232 7,404l6 250c0,21 1,41 3,61l27 6c47,4 94,11 140,20 4,3 7,5 9,7l0 28c-8,2 -15,3 -20,3 -5,0 -12,0 -20,-1 -49,-3 -109,-5 -180,-5 -50,0 -94,2 -132,4l-10 1c-5,0 -11,-1 -20,-2l-1 -22 20 -8 35 -6c32,-4 55,-9 69,-15 10,-3 18,-9 24,-16 5,-34 8,-85 8,-152 0,-31 -1,-88 -2,-172l0 -102 -2 -214c-1,-96 -4,-152 -10,-170 -3,-9 -9,-17 -18,-24 -20,-13 -45,-22 -75,-25 -31,-4 -51,-7 -60,-9zm1263 908c5,-4 10,-7 13,-8 9,-3 23,-5 44,-6 49,-3 79,-8 91,-14 7,-10 10,-24 10,-42l0 -52 0 -191 -1 -90 1 -189 -4 -214c-1,-51 -4,-79 -10,-86 -9,-9 -36,-15 -80,-16 -19,-1 -36,-2 -51,-5 -6,-3 -10,-8 -10,-14 0,-3 2,-8 4,-14 5,-2 9,-4 12,-4 7,0 16,1 26,1 29,3 60,5 92,5l55 -2 133 3c66,0 118,-1 155,-3 37,-2 62,-3 75,-3 12,0 40,2 86,6l107 -1 13 2 62 -2 8 4c2,4 4,8 5,12 0,7 -1,18 -3,33 -3,14 -4,23 -4,27 0,52 2,96 5,132 0,3 -2,5 -4,6 -5,0 -10,-1 -15,-3 -5,-9 -13,-26 -22,-50 -9,-24 -23,-52 -42,-83 -12,-21 -22,-34 -29,-38 -7,-3 -22,-6 -44,-6 -4,0 -27,0 -68,-1 -11,-1 -22,-1 -33,-1l-214 5 -19 0c-27,0 -44,3 -49,10 -9,12 -13,47 -13,106 0,6 1,65 4,179l0 104c5,2 11,2 18,2l12 0c9,0 21,1 37,1 26,1 44,2 53,2 6,0 11,0 15,-1 54,-2 123,-3 208,-3 26,-4 42,-10 46,-16 8,-9 13,-32 17,-70 4,-38 12,-60 26,-65 6,0 12,1 18,4 1,4 1,8 1,11 0,4 0,9 -1,17 -1,19 -2,77 -2,175 0,26 2,54 4,87 3,32 4,49 4,51 0,5 -1,11 -2,18 -4,2 -8,3 -10,3l-5 0c-8,-14 -16,-36 -24,-65 -13,-50 -26,-82 -41,-95 -14,-12 -37,-19 -69,-19 -7,0 -20,1 -38,1 -19,1 -46,1 -83,1l-49 0c-69,0 -115,2 -136,5l-1 25 1 138 -1 87 1 85c0,51 4,81 10,89 8,11 27,16 55,16l46 -1c4,0 20,1 47,2 28,0 61,1 102,1 96,0 161,-4 193,-13 32,-8 59,-23 80,-44 20,-21 47,-66 78,-136 10,-20 19,-30 28,-30 5,0 10,2 15,6 -14,49 -22,82 -24,97 -5,36 -9,72 -10,108 0,17 -4,31 -12,42l-16 0 -212 2 -95 -1 -227 2 -92 0c-11,0 -22,1 -32,1 -90,4 -157,6 -200,6 -7,0 -13,-2 -15,-4 -3,-2 -4,-6 -4,-11l0 -8zm3247 -9c11,-5 22,-7 34,-8 77,-5 121,-14 132,-28 11,-13 16,-78 16,-193l0 -80 0 -83 -3 -91 1 -54 -1 -58 0 -70 -1 -31 1 -39c1,-9 1,-20 1,-32 0,-32 -1,-65 -4,-100 -2,-7 -5,-14 -9,-21 -18,-9 -48,-16 -90,-19 -41,-3 -65,-7 -71,-11 -3,-3 -6,-11 -6,-23l63 0 200 6c52,0 120,-2 205,-6 0,8 0,15 -1,22 -10,3 -27,6 -50,9 -48,5 -77,11 -88,15 -6,3 -11,7 -14,13 -5,9 -8,26 -9,51l-4 97 3 335 0 133c-1,41 -1,70 -1,85 0,56 1,92 4,108 2,15 7,27 14,33 7,7 19,12 34,17 24,5 42,8 55,9 29,1 47,5 54,12 2,6 3,12 3,16l0 6c-46,2 -80,3 -102,3 -13,0 -35,-1 -67,-3l-105 2 -178 -1 -15 0 -1 -21zm591 -899l-1 -36c78,0 135,-2 171,-5 14,-2 24,-2 29,-2 5,0 12,0 21,1 20,18 40,38 58,60 4,5 9,10 13,15l159 175 22 28c32,37 62,69 88,96 26,26 77,82 153,166l180 199c17,20 39,44 67,73l1 -12c-3,-70 -5,-107 -5,-110l3 -46 -1 -71 0 -32c0,-20 -2,-84 -5,-191 0,-14 -2,-42 -5,-82 -3,-40 -4,-76 -4,-107 0,-55 -4,-87 -10,-96 -5,-7 -27,-13 -66,-20 -9,-1 -23,-2 -43,-5 -22,-1 -36,-2 -40,-4 -4,-1 -8,-5 -12,-12 1,-8 3,-16 6,-23 14,-4 27,-6 41,-6 14,0 31,2 53,6 21,3 40,5 56,5 23,0 60,-1 109,-3 28,-2 47,-3 58,-3l13 0 -2 23c-8,4 -19,6 -33,7 -14,0 -28,2 -40,6 -18,5 -29,10 -32,14 -12,13 -18,27 -18,40l8 238 6 109 0 31 4 151c3,103 5,193 5,269 0,17 -1,53 -3,108l-40 3c-17,-20 -78,-83 -180,-190 -25,-25 -41,-42 -49,-52l-65 -74c-25,-28 -41,-46 -49,-53 -7,-8 -12,-13 -16,-17 -54,-62 -125,-140 -212,-233 -24,-25 -58,-64 -104,-118 -28,-33 -46,-54 -54,-61 -7,-8 -17,-17 -30,-26l-2 26c0,97 2,232 7,404l5 250c0,21 2,41 4,61l26 6c48,4 95,11 141,20 3,3 6,5 9,7l-1 28c-8,2 -14,3 -20,3 -5,0 -12,0 -20,-1 -49,-3 -109,-5 -180,-5 -50,0 -94,2 -132,4l-10 1c-5,0 -11,-1 -20,-2l0 -22 19 -8 36 -6c31,-4 54,-9 69,-15 9,-3 17,-9 23,-16 6,-34 8,-85 8,-152 0,-31 0,-88 -2,-172l0 -102 -1 -214c-2,-96 -5,-152 -10,-170 -3,-9 -10,-17 -19,-24 -19,-13 -44,-22 -75,-25 -31,-4 -51,-7 -60,-9z"/>
    <path class="fil4" d="M12559 2342c5,-4 9,-7 12,-8 9,-3 24,-5 44,-6 49,-3 80,-8 91,-14 7,-10 11,-24 11,-42l-1 -52 1 -191 -2 -90 1 -189 -4 -214c0,-51 -4,-79 -10,-86 -9,-9 -35,-15 -80,-16 -19,-1 -36,-2 -51,-5 -6,-3 -9,-8 -9,-14 0,-3 1,-8 4,-14 4,-2 8,-4 12,-4 7,0 15,1 25,1 30,3 60,5 92,5l56 -2 132 3c67,0 118,-1 155,-3 37,-2 63,-3 75,-3 12,0 41,2 86,6l107 -1 13 2 62 -2 8 4c3,4 4,8 5,12 0,7 -1,18 -3,33 -2,14 -3,23 -3,27 0,52 1,96 5,132 -1,3 -2,5 -5,6 -5,0 -10,-1 -14,-3 -6,-9 -13,-26 -23,-50 -9,-24 -23,-52 -41,-83 -13,-21 -23,-34 -30,-38 -7,-3 -21,-6 -43,-6 -5,0 -28,0 -69,-1 -11,-1 -22,-1 -32,-1l-215 5 -19 0c-27,0 -43,3 -49,10 -9,12 -13,47 -13,106 0,6 1,65 4,179l0 104c5,2 11,2 18,2l12 0c9,0 21,1 38,1 26,1 43,2 52,2 6,0 11,0 16,-1 54,-2 123,-3 207,-3 27,-4 42,-10 46,-16 8,-9 14,-32 17,-70 4,-38 13,-60 26,-65 7,0 12,1 18,4 1,4 2,8 2,11 0,4 -1,9 -2,17 -1,19 -1,77 -1,175 0,26 1,54 3,87 3,32 4,49 4,51 0,5 0,11 -2,18 -4,2 -7,3 -10,3l-5 0c-8,-14 -16,-36 -23,-65 -13,-50 -27,-82 -41,-95 -15,-12 -38,-19 -70,-19 -7,0 -19,1 -38,1 -18,1 -46,1 -82,1l-49 0c-70,0 -115,2 -137,5l-1 25 1 138 -1 87 1 85c1,51 4,81 10,89 8,11 27,16 56,16l46 -1c3,0 19,1 47,2 27,0 61,1 101,1 97,0 161,-4 193,-13 33,-8 59,-23 80,-44 21,-21 47,-66 78,-136 10,-20 19,-30 29,-30 4,0 9,2 15,6 -15,49 -23,82 -25,97 -5,36 -8,72 -9,108 0,17 -4,31 -12,42l-17 0 -212 2 -95 -1 -226 2 -92 0c-12,0 -23,1 -33,1 -90,4 -157,6 -200,6 -7,0 -12,-2 -15,-4 -3,-2 -4,-6 -4,-11l1 -8z"/>
   </g>
   <path class="fil5" d="M2870 3440c-44,11 -80,16 -109,16 -62,0 -109,-17 -141,-51 -32,-34 -48,-75 -48,-124 0,-51 17,-96 52,-134 35,-37 84,-56 146,-56 29,0 55,2 77,8l-9 64c-28,-8 -54,-12 -77,-12 -38,0 -66,12 -85,36 -19,23 -28,52 -28,86 0,34 10,64 31,90 21,26 51,38 88,38 10,0 22,-1 35,-3 -2,-20 -4,-40 -4,-59 0,-20 -2,-42 -5,-66l77 0c-2,28 -3,56 -3,84 0,21 1,48 3,83zm343 -249l-16 64c-13,-6 -27,-9 -41,-9 -26,0 -44,12 -52,36 0,72 0,128 1,167l-72 0c3,-55 5,-99 5,-134 0,-43 -5,-84 -14,-122l69 -8c3,20 5,32 5,35l4 0c17,-25 39,-38 67,-38 13,0 28,3 44,9zm378 101c0,10 -1,22 -2,36l-174 3c2,21 11,38 26,51 15,14 35,21 59,21 27,0 56,-4 87,-12l-6 52c-25,9 -56,14 -93,14 -46,0 -82,-13 -107,-40 -25,-26 -37,-57 -37,-94 0,-39 12,-72 35,-101 24,-28 56,-42 99,-42 38,0 66,10 85,31 19,21 28,48 28,81zm-64 -2c0,-42 -17,-63 -53,-63 -34,0 -54,22 -60,65l113 -2zm441 159l-64 2c-3,-8 -4,-15 -4,-21l-4 0c-20,17 -47,26 -81,26 -22,0 -41,-7 -56,-19 -15,-13 -22,-29 -22,-50 0,-28 11,-50 35,-68 23,-17 64,-27 122,-28 0,-3 0,-6 0,-9 0,-20 -4,-32 -14,-39 -9,-6 -26,-9 -52,-9 -27,0 -54,4 -80,11l6 -50c25,-9 60,-13 104,-13 33,0 59,7 76,21 18,13 27,38 27,72 0,8 0,21 -1,41 0,21 -1,34 -1,41 0,37 3,68 9,92zm-73 -57c-1,-24 -1,-45 -1,-63 -62,0 -93,16 -93,47 0,21 14,32 41,32 21,0 39,-5 53,-16zm393 6l-4 48c-13,6 -29,9 -48,9 -30,0 -52,-8 -66,-24 -15,-16 -23,-47 -23,-92 0,-28 0,-59 1,-93 -9,0 -22,0 -38,2l2 -54c14,1 27,2 39,2 0,-10 1,-35 2,-76l65 -8c-3,36 -4,64 -4,84 15,0 37,-1 68,-2l-3 54c-27,-2 -49,-2 -67,-2 0,24 0,49 0,76 0,32 3,53 10,64 6,11 18,17 34,17 10,0 21,-2 32,-5zm758 -302c0,16 -18,76 -54,179 -36,102 -54,160 -54,174l-72 0c0,-14 -11,-55 -33,-121 -23,-71 -36,-118 -39,-140l-5 0c-3,23 -15,70 -36,141 -20,67 -30,107 -30,120l-73 0c0,-17 -18,-78 -54,-182 -35,-104 -53,-161 -53,-171l86 0c0,11 10,56 31,136 20,79 31,126 31,141l4 0c0,-15 11,-61 33,-139 22,-77 33,-124 33,-138l78 0c0,13 11,60 33,141 22,80 33,126 33,136l4 0c0,-13 10,-57 30,-133 20,-75 30,-123 30,-144l77 0zm218 353l-73 0c2,-38 3,-81 3,-129 0,-48 -3,-90 -9,-126l78 -8c-2,35 -3,79 -3,134 0,46 1,89 4,129zm12 -340c0,12 -4,23 -13,32 -8,10 -20,14 -35,14 -12,0 -22,-4 -29,-12 -8,-8 -11,-17 -11,-28 0,-13 4,-23 12,-32 9,-10 21,-14 36,-14 13,0 23,4 30,12 7,8 10,17 10,28zm402 340l-73 0c4,-46 6,-92 6,-139 0,-28 -4,-48 -12,-58 -9,-10 -22,-15 -39,-15 -20,0 -40,7 -58,21 1,71 1,134 1,191l-73 0c3,-57 5,-101 5,-134 0,-43 -5,-84 -13,-122l69 -8 5 29 4 0c25,-21 53,-32 85,-32 28,0 51,7 67,20 17,13 26,37 26,72 0,6 -1,13 -1,21 -1,9 -1,18 -1,27 0,25 1,67 2,127zm403 -157c0,10 -1,22 -2,36l-175 3c3,21 12,38 27,51 15,14 34,21 59,21 27,0 56,-4 86,-12l-5 52c-25,9 -56,14 -93,14 -46,0 -82,-13 -107,-40 -25,-26 -37,-57 -37,-94 0,-39 11,-72 35,-101 24,-28 56,-42 98,-42 39,0 67,10 86,31 19,21 28,48 28,81zm-64 -2c0,-42 -17,-63 -53,-63 -34,0 -54,22 -60,65l113 -2zm523 -226l-9 48c-11,-2 -21,-4 -32,-4 -13,0 -22,6 -27,18 -5,12 -7,35 -7,70 16,0 38,-1 66,-2l-2 54c-28,-2 -50,-2 -64,-2 0,68 1,136 4,203l-72 0c3,-66 4,-134 4,-203 -10,0 -26,0 -47,2l2 -54c19,1 34,2 45,2 0,-91 31,-137 92,-137 18,0 34,2 47,5zm401 250c0,46 -14,81 -43,107 -27,26 -61,38 -99,38 -36,0 -67,-11 -93,-35 -25,-23 -38,-56 -38,-99 0,-45 14,-81 42,-107 28,-26 61,-39 99,-39 36,0 67,12 93,36 26,23 39,56 39,99zm-71 8c0,-26 -6,-48 -19,-66 -12,-18 -28,-27 -48,-27 -19,0 -34,9 -46,25 -13,17 -19,38 -19,63 0,26 7,48 19,66 12,18 28,27 48,27 19,0 35,-9 47,-25 12,-17 18,-38 18,-63zm406 -131l-16 64c-13,-6 -27,-9 -41,-9 -26,0 -44,12 -52,36 0,72 0,128 1,167l-72 0c3,-55 5,-99 5,-134 0,-43 -5,-84 -14,-122l69 -8c4,20 5,32 5,35l4 0c17,-25 39,-38 67,-38 13,0 28,3 44,9zm564 249c-43,11 -79,16 -108,16 -62,0 -109,-17 -141,-51 -32,-34 -48,-75 -48,-124 0,-51 17,-96 52,-134 35,-37 84,-56 146,-56 29,0 55,2 77,8l-9 64c-29,-8 -54,-12 -77,-12 -38,0 -66,12 -85,36 -19,23 -28,52 -28,86 0,34 10,64 31,90 21,26 50,38 88,38 10,0 22,-1 35,-3 -2,-20 -4,-40 -4,-59 0,-20 -2,-42 -5,-66l76 0c-1,28 -2,56 -2,84 0,21 1,48 2,83zm344 -249l-16 64c-13,-6 -27,-9 -41,-9 -26,0 -44,12 -52,36 0,72 0,128 1,167l-72 0c3,-55 5,-99 5,-134 0,-43 -5,-84 -14,-122l69 -8c3,20 5,32 5,35l4 0c17,-25 39,-38 67,-38 13,0 27,3 44,9zm378 101c0,10 -1,22 -2,36l-175 3c3,21 12,38 27,51 15,14 34,21 59,21 27,0 56,-4 86,-12l-5 52c-25,9 -56,14 -93,14 -46,0 -82,-13 -107,-40 -25,-26 -37,-57 -37,-94 0,-39 11,-72 35,-101 24,-28 56,-42 98,-42 39,0 67,10 86,31 19,21 28,48 28,81zm-64 -2c0,-42 -17,-63 -53,-63 -34,0 -54,22 -60,65l113 -2zm441 159l-64 2c-3,-8 -5,-15 -5,-21l-3 0c-20,17 -47,26 -81,26 -22,0 -41,-7 -56,-19 -15,-13 -22,-29 -22,-50 0,-28 11,-50 34,-68 24,-17 64,-27 123,-28 0,-3 0,-6 0,-9 0,-20 -4,-32 -14,-39 -9,-6 -27,-9 -52,-9 -27,0 -54,4 -80,11l6 -50c25,-9 60,-13 104,-13 33,0 58,7 76,21 18,13 27,38 27,72 0,8 0,21 -1,41 -1,21 -1,34 -1,41 0,37 3,68 9,92zm-73 -57c-1,-24 -1,-45 -1,-63 -62,0 -93,16 -93,47 0,21 14,32 41,32 21,0 39,-5 53,-16zm393 6l-5 48c-12,6 -28,9 -47,9 -30,0 -52,-8 -67,-24 -14,-16 -22,-47 -22,-92 0,-28 0,-59 1,-93 -10,0 -22,0 -38,2l2 -54c14,1 27,2 39,2 0,-10 1,-35 2,-76l64 -8c-2,36 -4,64 -4,84 16,0 38,-1 69,-2l-3 54c-27,-2 -49,-2 -67,-2 0,24 0,49 0,76 0,32 3,53 10,64 6,11 18,17 34,17 10,0 21,-2 32,-5zm549 -210c0,43 -16,75 -49,96 -32,20 -71,31 -118,31 -8,0 -14,0 -18,-1 0,34 1,79 3,135l-76 0c2,-52 3,-114 3,-185 0,-65 -1,-121 -3,-168l47 0c7,0 20,-1 39,-1 19,-1 35,-1 49,-1 34,0 63,8 87,23 24,16 36,39 36,71zm-70 15c0,-39 -26,-58 -78,-58 -12,0 -26,1 -40,4 2,34 3,73 3,116 4,0 9,1 15,1 67,0 100,-21 100,-63zm455 89c0,10 -1,22 -2,36l-175 3c3,21 12,38 27,51 15,14 34,21 59,21 27,0 56,-4 86,-12l-5 52c-25,9 -56,14 -93,14 -47,0 -82,-13 -107,-40 -25,-26 -38,-57 -38,-94 0,-39 12,-72 36,-101 23,-28 56,-42 98,-42 39,0 67,10 86,31 18,21 28,48 28,81zm-64 -2c0,-42 -18,-63 -53,-63 -34,0 -54,22 -60,65l113 -2zm481 24c0,46 -14,81 -42,107 -28,26 -61,38 -99,38 -36,0 -67,-11 -93,-35 -26,-23 -39,-56 -39,-99 0,-45 14,-81 43,-107 28,-26 61,-39 99,-39 36,0 67,12 93,36 25,23 38,56 38,99zm-70 8c0,-26 -7,-48 -19,-66 -12,-18 -28,-27 -48,-27 -19,0 -35,9 -47,25 -12,17 -18,38 -18,63 0,26 6,48 19,66 12,18 28,27 48,27 19,0 34,-9 46,-25 13,-17 19,-38 19,-63zm488 -13c0,39 -11,74 -33,103 -23,30 -53,45 -92,45 -29,0 -49,-6 -60,-19l-3 0c0,45 0,90 2,135l-74 0c3,-52 5,-112 5,-180 0,-87 -5,-154 -14,-200l69 -8 4 24 5 0c19,-18 45,-27 79,-27 34,0 62,12 82,37 20,25 30,55 30,90zm-72 7c0,-23 -5,-43 -17,-59 -11,-16 -27,-25 -47,-25 -25,0 -43,8 -55,22 3,51 4,98 4,140 12,9 26,13 44,13 24,0 42,-8 54,-26 11,-18 17,-40 17,-65zm310 133l-74 0c2,-62 4,-129 4,-202 0,-70 -3,-130 -9,-180l79 -4c-3,51 -4,113 -4,184 0,73 1,140 4,202zm405 -157c0,10 -1,22 -2,36l-174 3c2,21 11,38 26,51 15,14 35,21 59,21 27,0 56,-4 87,-12l-6 52c-25,9 -56,14 -92,14 -47,0 -83,-13 -108,-40 -25,-26 -37,-57 -37,-94 0,-39 12,-72 35,-101 24,-28 57,-42 99,-42 38,0 66,10 85,31 19,21 28,48 28,81zm-63 -2c0,-42 -18,-63 -54,-63 -33,0 -54,22 -60,65l114 -2z"/>
  </g>
 </g>
</svg>
